Event 225293001 contains 187650 CaloCells
ID	Energy	Time	Qual	prov
0x2c20027a	2328	0	1	0	0xa5
0x2c20041a	2066	0	1	0	0xa5
0x2c200614	4124	0	1	0	0xa5
0x2c20061a	4052	0	1	0	0xa5
0x2c20061c	4990	0	1	0	0xa5
0x2c20061e	7528	-0.307	1	8	0x20a5
0x2c200620	3393	0	1	0	0xa5
0x2c200814	3385	0	1	0	0xa5
0x2c200816	5933	-3.358	1	23	0x20a5
0x2c200818	3864	0	1	0	0xa5
0x2c20081a	9403	-0.483	1	1	0x20a5
0x2c20081c	18801	0.275	1	7	0x20a5
0x2c20081e	48470	-0.824	1	31	0x20a5
0x2c200820	28259	0.216	1	14	0x20a5
0x2c200a14	2945	0	1	0	0xa5
0x2c200a16	13372	-1.135	1	18	0x20a5
0x2c200a18	4494	0	1	0	0xa5
0x2c200a1a	18551	0.088	1	3	0x20a5
0x2c200a1c	15845	0.144	1	2	0x20a5
0x2c200a1e	28826	0.202	1	4	0x20a5
0x2c200a20	11839	-2.124	1	20	0x20a5
0x2c200a22	3425	0	1	0	0xa5
0x2c200a52	3052	0	1	0	0xa5
0x2c200c1a	2228	0	1	0	0xa5
0x2c200c1e	8937.22	0	1	0	0x8a5
0x2c200c52	5220	0	1	0	0xa5
0x2c200c54	8902	-0.19	1	5	0x20a5
0x2c400818	2382	0.222	1	27	0x20a5
0x2c40081c	6141	-0.192	1	10	0x20a5
0x2c40081e	7793	-0.059	1	2	0x20a5
0x2c400a1c	4330	1.087	1	6	0x20a5
0x2c400a1e	11942	-0.292	1	4	0x20a5
0x2cc45044	2087	-0.03	0	33	0x20a5
0x2d40196e	3429	0.91	0	7	0x20a5
0x2d401b6e	5117	0.239	0	12	0x20a5
0x2d401b70	3888	0.523	0	65	0x20a5
0x2d401f6c	2986	-1.584	0	48	0x20a5
0x2d803650	2431	0.702	0	233	0x20a5
0x2da1ba50	5318	-0.049	0	18	0x20a5
0x2da1bc50	3810	0.221	0	854	0x20a5
0x2da1be50	3386	0.129	0	28	0x20a5
0x2dc0313c	2488	0.647	0	106	0x20a5
0x2dc0313e	2862	0.854	0	32	0x20a5
0x2dc03742	12047	0.215	0	43	0x20a5
0x2dc03744	6626	-0.028	0	126	0x20a5
0x2dc03942	3017	0.533	0	12	0x20a5
0x2dc03944	2206	1.224	0	9	0x20a5
0x2dc40168	3610	0.429	0	31	0x20a5
0x2ea0061a	2184	0	1	0	0xa5
0x2ea00812	2085	0	1	0	0xa5
0x2ea00814	3747	0	1	0	0xa5
0x30446000	2234	0	1	0	0xa5
0x30447000	9389	1.497	1	39	0x20a5
0x30448000	5532	-1.249	1	26	0x20a5
0x30485000	7910	-1.65	1	6	0x20a5
0x30486000	4823	0	1	0	0xa5
0x30487000	42382	0.108	1	9	0x20a5
0x30488000	6276	1.521	1	73	0x20a5
0x30c44000	2016	0	1	0	0xa5
0x30c45000	3717	0	1	0	0xa5
0x30c46000	3830	0	1	0	0xa5
0x30c47000	7944	2.414	1	65	0x20a5
0x30c48000	5256	6.312	1	50	0x20a5
0x30c49000	2170	0	1	0	0xa5
0x30c86000	3918	-1.351	1	12	0x20a5
0x30c87000	14915	1.596	1	7	0x20a5
0x30c88000	4465	4.719	1	31	0x20a5
0x31447000	4331	2.822	1	3	0x20a5
0x31485000	13739	0.318	1	163	0x20a5
0x31486000	4813	3.633	1	137	0x20a5
0x31487000	2331	0	1	0	0xa5
0x31488000	6432	-4.074	1	320	0x20a5
0x320d0000	5112	-2.567	1	106	0x20a5
0x32110000	2227	-16.288	1	11	0x20a5
0x32150000	2321	-1.852	1	24	0x20a5
0x329fd000	2541	-4.368	1	148	0x20a5
0x342e8000	3092	0	1	0	0xa5
0x34308000	2280	0	1	0	0xa5
0x34354000	2309	0	1	0	0xa5
0x34368000	2161	0	1	0	0xa5
0x343a6000	2128	0	1	0	0xa5
0x343f2000	2078	0	1	0	0xa5
0x343f8000	2809	0	1	0	0xa5
0x34410000	2844	0	1	0	0xa5
0x34414000	2141	0	1	0	0xa5
0x34436000	3377	0	1	0	0xa5
0x3443a000	2285	0	1	0	0xa5
0x34444000	6128	0	1	0	0xa5
0x3444a000	2209	0	1	0	0xa5
0x34452000	2463	0	1	0	0xa5
0x3445c000	2823	0	1	0	0xa5
0x34470000	2558	0	1	0	0xa5
0x34484000	8198	0	1	0	0xa5
0x34486000	5603	0	1	0	0xa5
0x34490000	3171	0	1	0	0xa5
0x34498000	2210	0	1	0	0xa5
0x344c0000	2157	0	1	0	0xa5
0x344d0000	2218	0	1	0	0xa5
0x344d8000	3373	0	1	0	0xa5
0x344f4000	3129	0	1	0	0xa5
0x344f6000	2446	0	1	0	0xa5
0x34504000	2916	0	1	0	0xa5
0x34512000	2474	0	1	0	0xa5
0x34518000	3476	0	1	0	0xa5
0x3452a000	2746	0	1	0	0xa5
0x34530000	13070	0	1	0	0xa5
0x34532000	4353	0	1	0	0xa5
0x3453c000	2229	0	1	0	0xa5
0x34544000	2031	0	1	0	0xa5
0x34552000	8146	0	1	0	0xa5
0x34554000	8637	0	1	0	0xa5
0x34572000	4133	0	1	0	0xa5
0x3457e000	2790	0	1	0	0xa5
0x34594000	19215	0.756	1	1	0x20a5
0x3459a000	2302	0	1	0	0xa5
0x345a0000	2016	0	1	0	0xa5
0x345aa000	3520	0	1	0	0xa5
0x345b2000	3177	0	1	0	0xa5
0x345ca000	2033	0	1	0	0xa5
0x345ce000	2136	0	1	0	0xa5
0x345d4000	5912	0	1	0	0xa5
0x345d6000	2798	0	1	0	0xa5
0x345de000	2541	0	1	0	0xa5
0x345e6000	3082	0	1	0	0xa5
0x345ec000	2782	0	1	0	0xa5
0x345f6000	2321	0	1	0	0xa5
0x345f8000	4435	0	1	0	0xa5
0x345fa000	2527	0	1	0	0xa5
0x34602000	2423	0	1	0	0xa5
0x34608000	2754	0	1	0	0xa5
0x3460a000	6707	0	1	0	0xa5
0x34610000	2323	0	1	0	0xa5
0x34612000	3622	0	1	0	0xa5
0x34614000	5238	0	1	0	0xa5
0x34616000	6162	0	1	0	0xa5
0x34618000	3634	0	1	0	0xa5
0x3461a000	2525	0	1	0	0xa5
0x34624000	2860	0	1	0	0xa5
0x34626000	6910	0	1	0	0xa5
0x34628000	4585	0	1	0	0xa5
0x34630000	3366	0	1	0	0xa5
0x34634000	4069	0	1	0	0xa5
0x34636000	2144	0	1	0	0xa5
0x34638000	8786	0	1	0	0xa5
0x3463a000	2789	0	1	0	0xa5
0x3463c000	2529	0	1	0	0xa5
0x34642000	5354	0	1	0	0xa5
0x34644000	2523	0	1	0	0xa5
0x3464c000	2476	0	1	0	0xa5
0x34650000	2991	0	1	0	0xa5
0x34652000	2710	0	1	0	0xa5
0x34654000	4098	0	1	0	0xa5
0x34658000	3002	0	1	0	0xa5
0x3465a000	4476	0	1	0	0xa5
0x34660000	2183	0	1	0	0xa5
0x34662000	4793	0	1	0	0xa5
0x3466a000	2049	0	1	0	0xa5
0x3466c000	3103	0	1	0	0xa5
0x3466e000	3278	0	1	0	0xa5
0x34672000	7949	0	1	0	0xa5
0x34674000	2215	0	1	0	0xa5
0x34676000	2381	0	1	0	0xa5
0x3467a000	4699	0	1	0	0xa5
0x3467c000	3832	0	1	0	0xa5
0x34680000	4104	0	1	0	0xa5
0x34684000	2189	0	1	0	0xa5
0x3468e000	5534	0	1	0	0xa5
0x34690000	4863	0	1	0	0xa5
0x34694000	3268	0	1	0	0xa5
0x34696000	2596	0	1	0	0xa5
0x34698000	2316	0	1	0	0xa5
0x3469a000	2014	0	1	0	0xa5
0x346a6000	2183	0	1	0	0xa5
0x346a8000	3651	0	1	0	0xa5
0x346ae000	5076	0	1	0	0xa5
0x346b0000	6958	0	1	0	0xa5
0x346b8000	5155	0	1	0	0xa5
0x346d0000	2943	0	1	0	0xa5
0x346d6000	3292	0	1	0	0xa5
0x346de000	2360	0	1	0	0xa5
0x346ee000	2034	0	1	0	0xa5
0x346f6000	2514	0	1	0	0xa5
0x346f8000	3497	0	1	0	0xa5
0x346fa000	3318	0	1	0	0xa5
0x346fe000	10056	0	1	0	0xa5
0x34706000	2724	0	1	0	0xa5
0x3470e000	2320	0	1	0	0xa5
0x34714000	3161	0	1	0	0xa5
0x34716000	2698	0	1	0	0xa5
0x34718000	2976	0	1	0	0xa5
0x3471a000	2805	0	1	0	0xa5
0x3471e000	11038	0	1	0	0xa5
0x34726000	5534	0	1	0	0xa5
0x34728000	4162	0	1	0	0xa5
0x3472a000	2355	0	1	0	0xa5
0x34734000	2136	0	1	0	0xa5
0x34736000	6294	0	1	0	0xa5
0x34738000	2922	0	1	0	0xa5
0x3473a000	5650	0	1	0	0xa5
0x34740000	2165	0	1	0	0xa5
0x34744000	4438	0	1	0	0xa5
0x34746000	4019	0	1	0	0xa5
0x34748000	2344	0	1	0	0xa5
0x3474e000	7858	0	1	0	0xa5
0x34750000	2180	0	1	0	0xa5
0x34754000	2627	0	1	0	0xa5
0x34756000	8360	0	1	0	0xa5
0x34758000	5370	0	1	0	0xa5
0x3475a000	3981	0	1	0	0xa5
0x3475e000	4112	0	1	0	0xa5
0x34762000	7227	0	1	0	0xa5
0x34766000	12915	0	1	0	0xa5
0x3476a000	2402	0	1	0	0xa5
0x3476e000	15859	0	1	0	0xa5
0x34770000	12115	0	1	0	0xa5
0x34776000	6523	0	1	0	0xa5
0x34778000	7653	0	1	0	0xa5
0x3477a000	11404	0	1	0	0xa5
0x3477e000	3619	0	1	0	0xa5
0x34780000	3302	0	1	0	0xa5
0x34784000	2465	0	1	0	0xa5
0x34786000	59569	-0.027	1	13	0x20a5
0x34788000	3000	0	1	0	0xa5
0x3478a000	3530	0	1	0	0xa5
0x3478c000	3123	0	1	0	0xa5
0x3478e000	5825	0	1	0	0xa5
0x34794000	3823	0	1	0	0xa5
0x34796000	4667	0	1	0	0xa5
0x34798000	4706	0	1	0	0xa5
0x3479a000	8974	0	1	0	0xa5
0x347a2000	2106	0	1	0	0xa5
0x347a4000	5965	0	1	0	0xa5
0x347a6000	5367	0	1	0	0xa5
0x347aa000	3527	0	1	0	0xa5
0x347ae000	3455	0	1	0	0xa5
0x347b0000	3430	0	1	0	0xa5
0x347b4000	3215	0	1	0	0xa5
0x347b6000	2182	0	1	0	0xa5
0x347b8000	32897	-0.149	1	7	0x20a5
0x347ba000	4120	0	1	0	0xa5
0x347be000	2067	0	1	0	0xa5
0x347c6000	6143	0	1	0	0xa5
0x347c8000	2837	0	1	0	0xa5
0x347ca000	4562	0	1	0	0xa5
0x347cc000	2237	0	1	0	0xa5
0x347ce000	4139	0	1	0	0xa5
0x347d0000	2801	0	1	0	0xa5
0x347d2000	2186	0	1	0	0xa5
0x347d4000	3926	0	1	0	0xa5
0x347d6000	3708	0	1	0	0xa5
0x347d8000	5484	0	1	0	0xa5
0x347da000	40074	0.035	1	1	0x20a5
0x347dc000	2470	0	1	0	0xa5
0x34840000	2958	-9.874	1	5	0x20a5
0x34896000	2319	0	1	0	0xa5
0x348b0000	2573	0	1	0	0xa5
0x348be000	2524	0	1	0	0xa5
0x348c6000	2820	0	1	0	0xa5
0x348f6000	2433	0	1	0	0xa5
0x348fe000	2598	0	1	0	0xa5
0x34916000	7374	0.721	1	1	0x20a5
0x34976000	2644	0	1	0	0xa5
0x349aa000	2249	0	1	0	0xa5
0x349c0000	2902	0	1	0	0xa5
0x349f8000	2059	0	1	0	0xa5
0x34a36000	3751	0	1	0	0xa5
0x34a48000	2119	0	1	0	0xa5
0x34a66000	2278	0	1	0	0xa5
0x34a72000	3055	0	1	0	0xa5
0x34a90000	2548	0	1	0	0xa5
0x34aa2000	2305	0	1	0	0xa5
0x34ab2000	2205	0	1	0	0xa5
0x34ab4000	2308	0	1	0	0xa5
0x34ad4000	2020	0	1	0	0xa5
0x34ad8000	2479	0	1	0	0xa5
0x34ade000	2782	0	1	0	0xa5
0x34aee000	2095	0	1	0	0xa5
0x34af2000	5227	0	1	0	0xa5
0x34b02000	2509	0	1	0	0xa5
0x34b04000	3211	0	1	0	0xa5
0x34b0a000	3035	0	1	0	0xa5
0x34b0c000	3324	0	1	0	0xa5
0x34b20000	4420	0	1	0	0xa5
0x34b24000	2321	0	1	0	0xa5
0x34b36000	12973	0	1	0	0xa5
0x34b38000	2272	0	1	0	0xa5
0x34b40000	3671	0	1	0	0xa5
0x34b48000	4551	0	1	0	0xa5
0x34b4e000	3655	0	1	0	0xa5
0x34b50000	2194	0	1	0	0xa5
0x34b5c000	3172	0	1	0	0xa5
0x34b62000	4332	0	1	0	0xa5
0x34b6a000	3846	0	1	0	0xa5
0x34b6c000	2822	0	1	0	0xa5
0x34b7a000	7011	0	1	0	0xa5
0x34b7e000	2144	0	1	0	0xa5
0x34b82000	5545	0	1	0	0xa5
0x34b86000	2800	0	1	0	0xa5
0x34b88000	2055	0	1	0	0xa5
0x34b8a000	2466	0	1	0	0xa5
0x34b8c000	3443	0	1	0	0xa5
0x34b8e000	3127	0	1	0	0xa5
0x34b92000	4813	0	1	0	0xa5
0x34b94000	3815	0	1	0	0xa5
0x34b96000	2567	0	1	0	0xa5
0x34b98000	2416	0	1	0	0xa5
0x34ba4000	3408	0	1	0	0xa5
0x34ba6000	3826	0	1	0	0xa5
0x34bae000	2303	0	1	0	0xa5
0x34bb2000	3978	0	1	0	0xa5
0x34bba000	23007	0.089	1	16	0x20a5
0x34bbe000	2313	0	1	0	0xa5
0x34bd2000	5035	0	1	0	0xa5
0x34bd6000	7142	0	1	0	0xa5
0x34bd8000	12267	0	1	0	0xa5
0x34be4000	4439	0	1	0	0xa5
0x34bea000	3486	0	1	0	0xa5
0x34bf2000	3482	0	1	0	0xa5
0x34bfa000	6775	0	1	0	0xa5
0x34bfc000	3626	0	1	0	0xa5
0x35010000	2093	0	1	0	0xa5
0x3502c000	2104	0	1	0	0xa5
0x35046000	3647	-2.265	1	12	0x20a5
0x35088000	2582	0	1	0	0xa5
0x3513c000	2103	0	1	0	0xa5
0x3518a000	2303	0	1	0	0xa5
0x35198000	2527	0	1	0	0xa5
0x3519c000	2605	0	1	0	0xa5
0x351a4000	2538	0	1	0	0xa5
0x351aa000	2207	0	1	0	0xa5
0x351ca000	2002	0	1	0	0xa5
0x351cc000	2045	0	1	0	0xa5
0x351d4000	2802	0	1	0	0xa5
0x351d6000	2470	0	1	0	0xa5
0x351d8000	2511	0	1	0	0xa5
0x351e2000	2767	0	1	0	0xa5
0x351e8000	4749	0	1	0	0xa5
0x351f8000	3627	0	1	0	0xa5
0x36380000	2677	0	1	0	0xa5
0x363a0000	2414	0	1	0	0xa5
0x36432000	2181	0	1	0	0xa5
0x36434000	2138	0	1	0	0xa5
0x3645a000	4430	0	1	0	0xa5
0x36478000	2911	0	1	0	0xa5
0x364a2000	2040	0	1	0	0xa5
0x364ac000	2593	0	1	0	0xa5
0x364b4000	9629	0	1	0	0xa5
0x364c0000	2211	0	1	0	0xa5
0x364cc000	2209	0	1	0	0xa5
0x364d8000	3309	0	1	0	0xa5
0x364dc000	2856	0	1	0	0xa5
0x364e2000	3974	0	1	0	0xa5
0x364f0000	2041	0	1	0	0xa5
0x364fa000	2978	0	1	0	0xa5
0x364fc000	2042	0	1	0	0xa5
0x36504000	2959	0	1	0	0xa5
0x36506000	2057	0	1	0	0xa5
0x36514000	3711	0	1	0	0xa5
0x36520000	2666	0	1	0	0xa5
0x36544000	4897	0	1	0	0xa5
0x3654a000	2412	0	1	0	0xa5
0x3654e000	2130	0	1	0	0xa5
0x36556000	2492	0	1	0	0xa5
0x36564000	3074	0	1	0	0xa5
0x36574000	6733	0	1	0	0xa5
0x3657c000	3942	0	1	0	0xa5
0x36588000	2017	0	1	0	0xa5
0x365a0000	3656	0	1	0	0xa5
0x365a2000	2074	0	1	0	0xa5
0x365a6000	2583	0	1	0	0xa5
0x365c0000	3417	0	1	0	0xa5
0x365d8000	3165	0	1	0	0xa5
0x365f0000	2844	0	1	0	0xa5
0x365fc000	2512	0	1	0	0xa5
0x365fe000	2217	0	1	0	0xa5
0x36600000	5389	0	1	0	0xa5
0x36604000	2556	0	1	0	0xa5
0x36608000	3107	0	1	0	0xa5
0x3660a000	2372	0	1	0	0xa5
0x3661a000	2258	0	1	0	0xa5
0x36622000	5489	0	1	0	0xa5
0x3662a000	3427	0	1	0	0xa5
0x3662e000	2143	0	1	0	0xa5
0x36630000	2282	0	1	0	0xa5
0x3663a000	3185	0	1	0	0xa5
0x3663c000	2102	0	1	0	0xa5
0x36642000	3091	0	1	0	0xa5
0x36648000	2160	0	1	0	0xa5
0x36652000	2360	0	1	0	0xa5
0x3665a000	18489	0	1	0	0xa5
0x3665c000	3910	0	1	0	0xa5
0x36662000	4140	0	1	0	0xa5
0x36672000	2299	0	1	0	0xa5
0x36674000	2711	0	1	0	0xa5
0x3667a000	23800	0	1	0	0xa5
0x3667c000	10720	0	1	0	0xa5
0x36694000	2066	0	1	0	0xa5
0x3669a000	3808	0	1	0	0xa5
0x3669e000	5582	0	1	0	0xa5
0x366b8000	3688	0	1	0	0xa5
0x366be000	2115	0	1	0	0xa5
0x366c4000	3214	0	1	0	0xa5
0x366c8000	2137	0	1	0	0xa5
0x366da000	2665	0	1	0	0xa5
0x366e4000	3010	0	1	0	0xa5
0x366ea000	3548	0	1	0	0xa5
0x366f4000	2029	0	1	0	0xa5
0x36704000	2856	0	1	0	0xa5
0x36716000	3843	0	1	0	0xa5
0x3671a000	4304	0	1	0	0xa5
0x3673c000	2877	0	1	0	0xa5
0x36742000	4259	0	1	0	0xa5
0x36748000	9680	0	1	0	0xa5
0x3675a000	2390	0	1	0	0xa5
0x3676a000	10909	0	1	0	0xa5
0x36770000	5895	0	1	0	0xa5
0x36780000	4094	0	1	0	0xa5
0x3678a000	3633	0	1	0	0xa5
0x367a0000	8231	0	1	0	0xa5
0x367a8000	3560	0	1	0	0xa5
0x367aa000	7201	0	1	0	0xa5
0x367ac000	2646	0	1	0	0xa5
0x367b2000	3139	0	1	0	0xa5
0x367bc000	7197	0	1	0	0xa5
0x367ca000	5092	0	1	0	0xa5
0x367ce000	2517	0	1	0	0xa5
0x367d0000	2321	0	1	0	0xa5
0x367d2000	4140	0	1	0	0xa5
0x36840000	2573	-2.758	1	1	0x20a5
0x36850000	2365	0	1	0	0xa5
0x36904000	2527	0	1	0	0xa5
0x3691e000	2845	0	1	0	0xa5
0x36940000	2704	0	1	0	0xa5
0x369a0000	2763	0	1	0	0xa5
0x369fc000	2105	0	1	0	0xa5
0x36a64000	2371	0	1	0	0xa5
0x36a72000	2181	0	1	0	0xa5
0x36a80000	2074	0	1	0	0xa5
0x36a86000	2102	0	1	0	0xa5
0x36a8c000	2160	0	1	0	0xa5
0x36aa6000	2839	0	1	0	0xa5
0x36aaa000	13971	-0.965	1	11	0x20a5
0x36ac0000	4056	0	1	0	0xa5
0x36ac8000	2431	0	1	0	0xa5
0x36ada000	4106	0	1	0	0xa5
0x36af0000	2021	0	1	0	0xa5
0x36af2000	2261	0	1	0	0xa5
0x36b00000	6358	0	1	0	0xa5
0x36b06000	3036	0	1	0	0xa5
0x36b0a000	2552	0	1	0	0xa5
0x36b16000	3138	0	1	0	0xa5
0x36b1e000	3996	0	1	0	0xa5
0x36b22000	3037	0	1	0	0xa5
0x36b28000	5850	0	1	0	0xa5
0x36b2e000	2338	0	1	0	0xa5
0x36b32000	5104	0	1	0	0xa5
0x36b36000	2451	0	1	0	0xa5
0x36b3a000	2246	0	1	0	0xa5
0x36b3e000	3142	0	1	0	0xa5
0x36b42000	3876	0	1	0	0xa5
0x36b46000	5082	0	1	0	0xa5
0x36b48000	2844	0	1	0	0xa5
0x36b4e000	8736	0	1	0	0xa5
0x36b58000	2886	0	1	0	0xa5
0x36b5e000	3441	0	1	0	0xa5
0x36b60000	8159	0	1	0	0xa5
0x36b64000	6103	0	1	0	0xa5
0x36b6e000	9701	0	1	0	0xa5
0x36b70000	2100	0	1	0	0xa5
0x36b76000	4934	0	1	0	0xa5
0x36b8c000	3557	0	1	0	0xa5
0x36b94000	5476	0	1	0	0xa5
0x36ba0000	2864	0	1	0	0xa5
0x36ba2000	2231	0	1	0	0xa5
0x36bb4000	4340	0	1	0	0xa5
0x36bb6000	2865	0	1	0	0xa5
0x36bc6000	2875	0	1	0	0xa5
0x36bd2000	6144	0	1	0	0xa5
0x36bd4000	5530	0	1	0	0xa5
0x36be2000	8837	0	1	0	0xa5
0x36be4000	3557	0	1	0	0xa5
0x36bf2000	2890	0	1	0	0xa5
0x3702e000	2434	0	1	0	0xa5
0x37088000	2006	0	1	0	0xa5
0x3708e000	2385	0	1	0	0xa5
0x370ce000	2230	0	1	0	0xa5
0x370fa000	2001	0	1	0	0xa5
0x37102000	2235	0	1	0	0xa5
0x3710c000	2176	0	1	0	0xa5
0x37172000	2097	0	1	0	0xa5
0x3718a000	2122	0	1	0	0xa5
0x371a0000	5212	0	1	0	0xa5
0x371bc000	2776	0	1	0	0xa5
0x371be000	2864	0	1	0	0xa5
0x371c4000	3549	0	1	0	0xa5
0x371c6000	2673	0	1	0	0xa5
0x371ce000	2474	0	1	0	0xa5
0x371de000	4609	0	1	0	0xa5
0x371e0000	7467	0	1	0	0xa5
0x371e2000	3178	0	1	0	0xa5
0x371e4000	2761	0	1	0	0xa5
0x371e6000	2949	0	1	0	0xa5
0x371e8000	2171	0	1	0	0xa5
0x371f2000	2656	0	1	0	0xa5
0x371f4000	2978	0	1	0	0xa5
0x440b4100	2643.71	0.564109	-11	1027	0xa2a2
0x4489c600	3026.65	1.17271	-11	1286	0xa2a2
0x4489c700	2239.53	2.03273	-11	2312	0xa2a2
0x448a0600	18852.6	0.742092	-11	5911	0xa2aa
0x448a0610	4325.43	0.946275	-11	2567	0xa2a2
0x448a0700	10037.1	0.238396	-11	1541	0xa2a2
0x448a0710	3584.41	0.916869	-11	1797	0xa2a2
0x48038e00	2359.17	1.72906	-11	1799	0xa2a2
Sum of 187137 cell energies: 1.3448e+06
Event 225293015 contains 187650 CaloCells
ID	Energy	Time	Qual	prov
0x2c20043c	2289	0	1	0	0xa5
0x2d4033f6	4768	-0.203	0	55	0x20a5
0x2d404612	2287	1.297	0	24	0x20a5
0x2d404e14	3447	-0.843	0	20	0x20a5
0x2d805c04	3806	-0.283	0	100	0x20a5
0x2d805e04	3278	0.6	0	70	0x20a5
0x2d807440	3411	-0.795	0	29	0x20a5
0x2d807640	14716	0.054	0	265	0x20a5
0x2d807840	5035	-0.117	0	263	0x20a5
0x2da2ec04	2752	0.102	0	231	0x20a5
0x2da2ee04	10089	0.139	1	0	0x20a5
0x2da2f004	8222	0.213	1	8	0x20a5
0x2da2f204	2981	0.215	0	42	0x20a5
0x2dc03308	4451	-0.05	0	121	0x20a5
0x2dc03708	2374	1.145	0	100	0x20a5
0x2dc0390c	14387	-0.074	0	8	0x20a5
0x2dc0390e	3095	1.034	0	62	0x20a5
0x2dc03b0c	4861	-0.598	0	5	0x20a5
0x2dc05c0e	4373	0.032	0	38	0x20a5
0x2dc05c10	28733	0.139	0	53	0x20a5
0x2dc05c12	4644	0.18	0	45	0x20a5
0x2dc05e0e	4521	0.972	0	34	0x20a5
0x2dc05e10	32903	0.195	0	5	0x20a5
0x2dc05e12	4810	-0.192	0	41	0x20a5
0x2e240240	5548	-0.386	0	9	0x20a5
0x2e240440	13192	-0.029	0	24	0x20a5
0x2e440302	6231	0.223	0	33	0x20a5
0x2e440304	6190	0.849	0	16	0x20a5
0x2e4404fe	2222	0.475	0	47	0x20a5
0x2e440502	3933	0.307	0	50	0x20a5
0x2e440504	10323	0.22	0	12	0x20a5
0x2e440506	3568	0.651	0	6	0x20a5
0x2ea00424	2516	0	1	0	0xa5
0x2ea0087e	2118	0	1	0	0xa5
0x2ea00a5c	3339	0	1	0	0xa5
0x2ea00a5e	4733	0	1	0	0xa5
0x3144a000	2277	0	1	0	0xa5
0x32060000	3384	1.324	1	24	0x20a5
0x3240b000	3687	0	1	0	0xa5
0x32411000	3884	0	1	0	0xa5
0x32c4c000	2090	0	1	0	0xa5
0x3436a000	6043	-2.355	1	0	0x20a5
0x343a2000	2004	0	1	0	0xa5
0x343c4000	3018	0	1	0	0xa5
0x343ca000	2185	0	1	0	0xa5
0x343ea000	2151	0	1	0	0xa5
0x343ec000	2416	0	1	0	0xa5
0x34404000	11444	-0.801	1	2	0x20a5
0x34420000	2042	0	1	0	0xa5
0x3442a000	3016	0	1	0	0xa5
0x3444a000	2422	0	1	0	0xa5
0x34464000	4001	0	1	0	0xa5
0x3446a000	2300	0	1	0	0xa5
0x3446c000	2507	0	1	0	0xa5
0x3448c000	2055	0	1	0	0xa5
0x3449e000	4773	0	1	0	0xa5
0x344b0000	2687	0	1	0	0xa5
0x344cc000	7739	0	1	0	0xa5
0x344ce000	3519	0	1	0	0xa5
0x344de000	2195	0	1	0	0xa5
0x344e0000	2380	0	1	0	0xa5
0x344e4000	2425	0	1	0	0xa5
0x344e6000	2205	0	1	0	0xa5
0x344f0000	2459	0	1	0	0xa5
0x3452c000	7725	0	1	0	0xa5
0x3454c000	2648	0	1	0	0xa5
0x3454e000	2299	0	1	0	0xa5
0x34550000	2215	0	1	0	0xa5
0x3456e000	2267	0	1	0	0xa5
0x34582000	2152	0	1	0	0xa5
0x3458e000	2825	0	1	0	0xa5
0x34592000	2495	0	1	0	0xa5
0x345a4000	2227	0	1	0	0xa5
0x345a8000	2176	0	1	0	0xa5
0x345b0000	3115	0	1	0	0xa5
0x345be000	2559	0	1	0	0xa5
0x345c4000	2685	0	1	0	0xa5
0x345c8000	5046	0	1	0	0xa5
0x345ca000	4189	0	1	0	0xa5
0x345d2000	4174	0	1	0	0xa5
0x345da000	2776	0	1	0	0xa5
0x345e0000	2903	0	1	0	0xa5
0x345e4000	2570	0	1	0	0xa5
0x3460a000	6253	0	1	0	0xa5
0x34612000	2936	0	1	0	0xa5
0x34618000	2571	0	1	0	0xa5
0x3461a000	3082	0	1	0	0xa5
0x3461e000	2931	0	1	0	0xa5
0x34622000	5244	0	1	0	0xa5
0x34628000	2670	0	1	0	0xa5
0x34630000	5258	0	1	0	0xa5
0x34636000	3532	0	1	0	0xa5
0x34638000	3135	0	1	0	0xa5
0x3463a000	2293	0	1	0	0xa5
0x3464a000	2853	0	1	0	0xa5
0x34654000	2145	0	1	0	0xa5
0x34658000	2512	0	1	0	0xa5
0x34660000	5211	0	1	0	0xa5
0x34662000	3731	0	1	0	0xa5
0x34666000	4072	0	1	0	0xa5
0x34670000	7325	0	1	0	0xa5
0x34672000	5020	0	1	0	0xa5
0x3467c000	4643	0	1	0	0xa5
0x34680000	2276	0	1	0	0xa5
0x34684000	3813	0	1	0	0xa5
0x34690000	14468	0	1	0	0xa5
0x34694000	10510	0	1	0	0xa5
0x346ae000	3256	0	1	0	0xa5
0x346b0000	7748	0	1	0	0xa5
0x346d0000	2938	0	1	0	0xa5
0x346d4000	2735	0	1	0	0xa5
0x346de000	3298	0	1	0	0xa5
0x346e4000	2190	0	1	0	0xa5
0x346e6000	2270	0	1	0	0xa5
0x34706000	2195	0	1	0	0xa5
0x34714000	3766	0	1	0	0xa5
0x34730000	2422	0	1	0	0xa5
0x34732000	3132	0	1	0	0xa5
0x34740000	3206	0	1	0	0xa5
0x34754000	2602	0	1	0	0xa5
0x34764000	2873	0	1	0	0xa5
0x34766000	2446	0	1	0	0xa5
0x3476a000	4092	0	1	0	0xa5
0x3476e000	2310	0	1	0	0xa5
0x34772000	3009	0	1	0	0xa5
0x34774000	2951	0	1	0	0xa5
0x34782000	4769	0	1	0	0xa5
0x34784000	2445	0	1	0	0xa5
0x34786000	3875	0	1	0	0xa5
0x34796000	2780	0	1	0	0xa5
0x347a2000	11997	0	1	0	0xa5
0x347a4000	2835	0	1	0	0xa5
0x347a6000	3489	0	1	0	0xa5
0x347a8000	2273	0	1	0	0xa5
0x347c4000	7537	0	1	0	0xa5
0x347c6000	9480	0	1	0	0xa5
0x347c8000	2208	0	1	0	0xa5
0x347ca000	3525	0	1	0	0xa5
0x347ce000	2541	0	1	0	0xa5
0x347d2000	2997	0	1	0	0xa5
0x3494c000	2663	0	1	0	0xa5
0x3495e000	2351	0	1	0	0xa5
0x34a2e000	2840	0	1	0	0xa5
0x34a44000	2330	0	1	0	0xa5
0x34a4c000	2427	0	1	0	0xa5
0x34a4e000	2600	0	1	0	0xa5
0x34a8c000	2846	0	1	0	0xa5
0x34aa0000	2814	0	1	0	0xa5
0x34ad0000	4529	0	1	0	0xa5
0x34ae4000	3373	0	1	0	0xa5
0x34ae8000	3048	0	1	0	0xa5
0x34af0000	2021	0	1	0	0xa5
0x34afc000	2284	0	1	0	0xa5
0x34b00000	2656	0	1	0	0xa5
0x34b0c000	2247	0	1	0	0xa5
0x34b12000	3417	0	1	0	0xa5
0x34b28000	5072	0	1	0	0xa5
0x34b36000	2680	0	1	0	0xa5
0x34b38000	4033	0	1	0	0xa5
0x34b3a000	3894	0	1	0	0xa5
0x34b3c000	3032	0	1	0	0xa5
0x34b4a000	3839	0	1	0	0xa5
0x34b4e000	5070	0	1	0	0xa5
0x34b50000	2423	0	1	0	0xa5
0x34b52000	2209	0	1	0	0xa5
0x34b58000	5500	0	1	0	0xa5
0x34b5c000	2671	0	1	0	0xa5
0x34b5e000	3350	0	1	0	0xa5
0x34b60000	2838	0	1	0	0xa5
0x34b6a000	2662	0	1	0	0xa5
0x34b6e000	4771	0	1	0	0xa5
0x34b70000	3054	0	1	0	0xa5
0x34b7a000	4762	0	1	0	0xa5
0x34b84000	4318	0	1	0	0xa5
0x34b8c000	2947	0	1	0	0xa5
0x34b9e000	2098	0	1	0	0xa5
0x34ba2000	2396	0	1	0	0xa5
0x34bb2000	2319	0	1	0	0xa5
0x34bb6000	2093	0	1	0	0xa5
0x34bc4000	2527	0	1	0	0xa5
0x34bd4000	2878	0	1	0	0xa5
0x34bda000	2629	0	1	0	0xa5
0x34bdc000	2793	0	1	0	0xa5
0x34bea000	3700	0	1	0	0xa5
0x34bec000	4232	0	1	0	0xa5
0x34bf2000	3853	0	1	0	0xa5
0x35022000	2737	0	1	0	0xa5
0x3505c000	2585	0	1	0	0xa5
0x3518c000	2753	0	1	0	0xa5
0x351c0000	4389	0	1	0	0xa5
0x351c8000	2041	0	1	0	0xa5
0x351e2000	2546	0	1	0	0xa5
0x3635c000	10639	-0.253	1	6	0x20a5
0x36378000	2241	0	1	0	0xa5
0x363a8000	3547	0	1	0	0xa5
0x363be000	3396	0	1	0	0xa5
0x363ea000	2374	0	1	0	0xa5
0x363fc000	6097	0	1	0	0xa5
0x36404000	6020	0	1	0	0xa5
0x36406000	2228	0	1	0	0xa5
0x36426000	2110	0	1	0	0xa5
0x3643c000	7746	2.592	1	0	0x20a5
0x36450000	2166	0	1	0	0xa5
0x36456000	2713	0	1	0	0xa5
0x36476000	2133	0	1	0	0xa5
0x36486000	2462	0	1	0	0xa5
0x364a4000	2212	0	1	0	0xa5
0x364a8000	3167	0	1	0	0xa5
0x364ac000	2496	0	1	0	0xa5
0x364ba000	3142	0	1	0	0xa5
0x364c8000	6866	0	1	0	0xa5
0x364d6000	2227	0	1	0	0xa5
0x364e8000	8374	0	1	0	0xa5
0x364f8000	2577	0	1	0	0xa5
0x36504000	2849	0	1	0	0xa5
0x36508000	2256	0	1	0	0xa5
0x36518000	5235	0	1	0	0xa5
0x36522000	2187	0	1	0	0xa5
0x36526000	2412	0	1	0	0xa5
0x3652a000	2005	0	1	0	0xa5
0x36536000	2014	0	1	0	0xa5
0x3653a000	2170	0	1	0	0xa5
0x36556000	4950	0	1	0	0xa5
0x36558000	14451	0	1	0	0xa5
0x3655a000	2937	0	1	0	0xa5
0x36564000	2456	0	1	0	0xa5
0x36566000	2816	0	1	0	0xa5
0x36578000	4167	0	1	0	0xa5
0x3657c000	2680	0	1	0	0xa5
0x36584000	2267	0	1	0	0xa5
0x36586000	8358	0	1	0	0xa5
0x36592000	2495	0	1	0	0xa5
0x36596000	4020	0	1	0	0xa5
0x36598000	8157	0	1	0	0xa5
0x3659a000	3162	0	1	0	0xa5
0x3659c000	2046	0	1	0	0xa5
0x365a0000	2042	0	1	0	0xa5
0x365a6000	2358	0	1	0	0xa5
0x365ac000	2487	0	1	0	0xa5
0x365ba000	2664	0	1	0	0xa5
0x365c6000	9902	0	1	0	0xa5
0x365c8000	2187	0	1	0	0xa5
0x365d4000	3259	0	1	0	0xa5
0x365d6000	3725	0	1	0	0xa5
0x365d8000	2366	0	1	0	0xa5
0x365da000	4221	0	1	0	0xa5
0x365e6000	2108	0	1	0	0xa5
0x365ea000	5304	0	1	0	0xa5
0x365f8000	2451	0	1	0	0xa5
0x365fa000	2011	0	1	0	0xa5
0x36606000	3766	0	1	0	0xa5
0x36612000	2764	0	1	0	0xa5
0x36616000	3109	0	1	0	0xa5
0x36618000	3093	0	1	0	0xa5
0x3661a000	3989	0	1	0	0xa5
0x3661c000	2783	0	1	0	0xa5
0x36626000	2204	0	1	0	0xa5
0x3662a000	4061	0	1	0	0xa5
0x36638000	2862	0	1	0	0xa5
0x3663a000	4357	0	1	0	0xa5
0x36642000	2352	0	1	0	0xa5
0x36646000	3737	0	1	0	0xa5
0x3665a000	3111	0	1	0	0xa5
0x3665c000	3851	0	1	0	0xa5
0x36660000	3593	0	1	0	0xa5
0x36666000	2246	0	1	0	0xa5
0x3667a000	6241	0	1	0	0xa5
0x3667c000	3987	0	1	0	0xa5
0x36680000	4413	0	1	0	0xa5
0x36684000	2970	0	1	0	0xa5
0x3669c000	3102	0	1	0	0xa5
0x3669e000	3599	0	1	0	0xa5
0x366ac000	3852	0	1	0	0xa5
0x366bc000	2562	0	1	0	0xa5
0x366be000	3895	0	1	0	0xa5
0x366c4000	2392	0	1	0	0xa5
0x366d6000	2606	0	1	0	0xa5
0x366de000	2027	0	1	0	0xa5
0x366e0000	2284	0	1	0	0xa5
0x366e4000	2254	0	1	0	0xa5
0x366ee000	2636	0	1	0	0xa5
0x366f8000	2760	0	1	0	0xa5
0x366fc000	2075	0	1	0	0xa5
0x36718000	3510	0	1	0	0xa5
0x3671a000	2031	0	1	0	0xa5
0x3671c000	2339	0	1	0	0xa5
0x3672c000	2288	0	1	0	0xa5
0x36762000	2521	0	1	0	0xa5
0x36766000	2720	0	1	0	0xa5
0x36778000	4711	0	1	0	0xa5
0x36786000	2786	0	1	0	0xa5
0x3678a000	2890	0	1	0	0xa5
0x367a0000	2446	0	1	0	0xa5
0x367a6000	2095	0	1	0	0xa5
0x367aa000	3045	0	1	0	0xa5
0x367c4000	2227	0	1	0	0xa5
0x367c6000	2480	0	1	0	0xa5
0x367ce000	3212	0	1	0	0xa5
0x367d0000	4016	0	1	0	0xa5
0x368aa000	2235	0	1	0	0xa5
0x3694c000	2817	0	1	0	0xa5
0x3695a000	2621	0	1	0	0xa5
0x36986000	2169	0	1	0	0xa5
0x36a08000	3055	0	1	0	0xa5
0x36a28000	2154	0	1	0	0xa5
0x36a2a000	2897	0	1	0	0xa5
0x36a3c000	2075	0	1	0	0xa5
0x36a42000	2025	0	1	0	0xa5
0x36a5a000	4068	0	1	0	0xa5
0x36a5c000	2030	0	1	0	0xa5
0x36a68000	3677	0	1	0	0xa5
0x36a72000	2048	0	1	0	0xa5
0x36a74000	2487	0	1	0	0xa5
0x36a88000	10524	-0.15	1	12	0x20a5
0x36a98000	3637	0	1	0	0xa5
0x36ab2000	2221	0	1	0	0xa5
0x36acc000	2408	0	1	0	0xa5
0x36ad6000	2095	0	1	0	0xa5
0x36ad8000	2601	0	1	0	0xa5
0x36ae8000	2295	0	1	0	0xa5
0x36af2000	2447	0	1	0	0xa5
0x36b02000	3120	0	1	0	0xa5
0x36b14000	2424	0	1	0	0xa5
0x36b1e000	2929	0	1	0	0xa5
0x36b26000	5608	0	1	0	0xa5
0x36b28000	3692	0	1	0	0xa5
0x36b42000	2336	0	1	0	0xa5
0x36b44000	3120	0	1	0	0xa5
0x36b4a000	14283	0	1	0	0xa5
0x36b54000	3045	0	1	0	0xa5
0x36b60000	7046	0	1	0	0xa5
0x36b6e000	2627	0	1	0	0xa5
0x36b72000	4187	0	1	0	0xa5
0x36b76000	3840	0	1	0	0xa5
0x36b78000	2746	0	1	0	0xa5
0x36b80000	2406	0	1	0	0xa5
0x36b84000	6409	0	1	0	0xa5
0x36b8e000	3893	0	1	0	0xa5
0x36b92000	3657	0	1	0	0xa5
0x36b94000	5278	0	1	0	0xa5
0x36b9a000	3636	0	1	0	0xa5
0x36bac000	2044	0	1	0	0xa5
0x36bb8000	2226	0	1	0	0xa5
0x36bc2000	3763	0	1	0	0xa5
0x36bc6000	2078	0	1	0	0xa5
0x36bd2000	4062	0	1	0	0xa5
0x36bdc000	2366	0	1	0	0xa5
0x3706e000	2626	0	1	0	0xa5
0x370ca000	2648	0	1	0	0xa5
0x3714c000	3025	0	1	0	0xa5
0x3714e000	2499	0	1	0	0xa5
0x37164000	2177	0	1	0	0xa5
0x371aa000	3531	0	1	0	0xa5
0x371ba000	2961	0	1	0	0xa5
0x371ca000	2016	0	1	0	0xa5
0x371d4000	2945	0	1	0	0xa5
0x371e6000	4427	0	1	0	0xa5
0x371f6000	6622	0	1	0	0xa5
0x371f8000	2923	0	1	0	0xa5
0x44000700	4957.03	0.584982	-11	1540	0xa2a2
0x44880700	2288.7	1.12286	-11	1284	0xa2a2
0x44884700	4236.41	0.62821	-11	1539	0xa2a2
0x48880e00	4568.8	1.39756	-11	2571	0xa2a2
0x4888cd00	2080.56	2.09161	-11	1799	0xa2a2
0x4c010b30	9050.59	2.96645	-3	110	0xa2
0x4c020d30	2605.13	2.50188	-3	27	0xa2
0x4c060b30	11793.5	3.01349	-4	2	0xa2
0x4c060d30	6448.62	4.06305	-3	97	0xa2
0x4c848f30	2058.45	2.40676	-3	20	0xa2
0x4c868d30	3401.75	4.0979	-3	42	0xa2
0x4c87cf30	8186.18	0.388804	-3	13	0xa2
0x4c880f30	27578	0.137989	-4	1	0xa2
0x4c884f30	3496.2	0.35141	-3	7	0xa2
Sum of 187277 cell energies: 1.14634e+06
Event 225293027 contains 187650 CaloCells
ID	Energy	Time	Qual	prov
0x2c20063c	2623	0	1	0	0xa5
0x2c20063e	3961	0	1	0	0xa5
0x2c200640	2705	0	1	0	0xa5
0x2c20083c	3504	0	1	0	0xa5
0x2c20083e	6403	-2.659	1	1	0x20a5
0x2c200c08	3283	0	1	0	0xa5
0x2c200c0a	4794	0	1	0	0xa5
0x2d21d81a	2967	-0.07	0	164	0x20a5
0x2d403864	4556	0.293	0	184	0x20a5
0x2d403866	2738	-0.523	0	87	0x20a5
0x2d40386a	3961	-0.678	0	146	0x20a5
0x2d40386c	4143	-0.363	0	255	0x20a5
0x2d403a68	3122	0.447	0	53	0x20a5
0x2d403a6a	12246	-0.111	0	87	0x20a5
0x2d403a6c	8087	0.351	0	174	0x20a5
0x2d403a6e	6357	-0.246	0	21	0x20a5
0x2e28be58	3041	0.054	0	395	0x20a5
0x2e2c0058	12387	0.029	1	3	0x20a5
0x2e2c0258	4455	0.112	0	110	0x20a5
0x2e2c3e4c	2040	0.179	0	600	0x20a5
0x2e441d60	4698	0.802	0	82	0x20a5
0x2e441d62	8048	0.168	0	2	0x20a5
0x2e441f60	10212	-0.174	0	41	0x20a5
0x2e441f62	19889	0.066	0	14	0x20a5
0x2e60138c	2050	0.585	0	14	0x20a5
0x2ea00054	2024	0	1	0	0xa5
0x2ea00058	2406	0	1	0	0xa5
0x2ea00254	3988	0	1	0	0xa5
0x2ea00258	4890	-4.298	1	23	0x20a5
0x2ea0025a	8697	0.672	1	2	0x20a5
0x2ea0025c	5422	4.43	1	21	0x20a5
0x2ea0042c	4261	0	1	0	0xa5
0x2ea00450	2823	0	1	0	0xa5
0x2ea00458	2679	0	1	0	0xa5
0x2ea0045a	7942	2.04	1	18	0x20a5
0x2ea0045c	27521	-0.097	1	1	0x20a5
0x2ea00462	2093	0	1	0	0xa5
0x2ea00654	5592	-0.947	1	0	0x20a5
0x2ea00658	6851	2.303	1	13	0x20a5
0x2ea0065a	12983	1.088	1	0	0x20a5
0x2ea0065c	3855	0	1	0	0xa5
0x2ea0084e	4464	0	1	0	0xa5
0x2ea00852	3278	0	1	0	0xa5
0x2ea00854	10866	-2.353	1	26	0x20a5
0x2ea00856	3747	0	1	0	0xa5
0x2ea00858	3236	0	1	0	0xa5
0x2ea00a54	2414	0	1	0	0xa5
0x2ea00a56	4887	0	1	0	0xa5
0x2ea00a58	11790	-1.055	1	7	0x20a5
0x2ea00c54	7016	1.79	1	3	0x20a5
0x2ea00c56	3700	0	1	0	0xa5
0x2ea00c7e	3352	0	1	0	0xa5
0x3044f000	2136	0	1	0	0xa5
0x30450000	2348	0	1	0	0xa5
0x3048e000	2284	0	1	0	0xa5
0x30c13000	2367	0	1	0	0xa5
0x30c52000	3069	0	1	0	0xa5
0x321f1000	3386	5.361	1	23	0x20a5
0x32494000	2182	0	1	0	0xa5
0x32497000	2450	0	1	0	0xa5
0x324d9000	2206	0	1	0	0xa5
0x32965000	2010	5.678	1	26	0x20a5
0x32966000	5451	5.345	1	25	0x20a5
0x329a6000	4653	1.819	1	9	0x20a5
0x32c13000	2432	0	1	0	0xa5
0x32c14000	3751	0	1	0	0xa5
0x32c42000	2580	0	1	0	0xa5
0x32c53000	2397	0	1	0	0xa5
0x32c55000	2033	0	1	0	0xa5
0x32c56000	2771	0	1	0	0xa5
0x32c96000	5516	-3.247	1	76	0x20a5
0x32c98000	2117	0	1	0	0xa5
0x33496000	7429	0.213	1	21	0x20a5
0x34238000	3799	2.269	1	1	0x20a5
0x34364000	5034	-0.002	1	15	0x20a5
0x343a4000	2214	0	1	0	0xa5
0x343c4000	3010	0	1	0	0xa5
0x343e4000	7966	1.358	1	11	0x20a5
0x343e8000	2230	0	1	0	0xa5
0x34402000	2147	0	1	0	0xa5
0x3440e000	2107	0	1	0	0xa5
0x34424000	2983	0	1	0	0xa5
0x3445a000	3970	0	1	0	0xa5
0x34468000	2167	0	1	0	0xa5
0x34470000	3107	0	1	0	0xa5
0x34478000	3708	0	1	0	0xa5
0x34490000	6604	0	1	0	0xa5
0x34496000	2178	0	1	0	0xa5
0x344ac000	2173	0	1	0	0xa5
0x344b0000	2403	0	1	0	0xa5
0x344b4000	7871	0	1	0	0xa5
0x344c4000	2463	0	1	0	0xa5
0x344ce000	3182	0	1	0	0xa5
0x344d0000	12321	0.631	1	0	0x20a5
0x344da000	2226	0	1	0	0xa5
0x344f0000	3912	0	1	0	0xa5
0x344f4000	2056	0	1	0	0xa5
0x34524000	2954	0	1	0	0xa5
0x34526000	2024	0	1	0	0xa5
0x34530000	3419	0	1	0	0xa5
0x34550000	7256	0	1	0	0xa5
0x34564000	2132	0	1	0	0xa5
0x34576000	2433	0	1	0	0xa5
0x34578000	2345	0	1	0	0xa5
0x34580000	2021	0	1	0	0xa5
0x34582000	2302	0	1	0	0xa5
0x34594000	2935	0	1	0	0xa5
0x345b6000	2244	0	1	0	0xa5
0x345ba000	4170	0	1	0	0xa5
0x345d2000	2259	0	1	0	0xa5
0x345dc000	3499	0	1	0	0xa5
0x345e4000	3801	0	1	0	0xa5
0x345e6000	6701	0	1	0	0xa5
0x345f2000	2545	0	1	0	0xa5
0x345fa000	8011	0	1	0	0xa5
0x3460c000	2100	0	1	0	0xa5
0x34616000	2583	0	1	0	0xa5
0x34618000	2896	0	1	0	0xa5
0x3461c000	2218	0	1	0	0xa5
0x34626000	3094	0	1	0	0xa5
0x3462a000	2076	0	1	0	0xa5
0x34630000	5854	0	1	0	0xa5
0x34632000	5461	0	1	0	0xa5
0x34634000	3203	0	1	0	0xa5
0x34636000	2499	0	1	0	0xa5
0x3463a000	2265	0	1	0	0xa5
0x34644000	2266	0	1	0	0xa5
0x3464a000	2260	0	1	0	0xa5
0x34650000	8559	0	1	0	0xa5
0x34652000	5105	0	1	0	0xa5
0x34654000	2412	0	1	0	0xa5
0x3466a000	3932	0	1	0	0xa5
0x3466c000	2043	0	1	0	0xa5
0x34670000	5788	0	1	0	0xa5
0x34672000	4173	0	1	0	0xa5
0x34674000	11804	0	1	0	0xa5
0x34680000	2763	0	1	0	0xa5
0x34690000	3125	0	1	0	0xa5
0x346a0000	2554	0	1	0	0xa5
0x346a2000	2761	0	1	0	0xa5
0x346ae000	4734	0	1	0	0xa5
0x346d8000	4409	0	1	0	0xa5
0x346e2000	3018	0	1	0	0xa5
0x346ee000	4706	0	1	0	0xa5
0x346fa000	3084	0	1	0	0xa5
0x34704000	2977	0	1	0	0xa5
0x34708000	2648	0	1	0	0xa5
0x3470e000	2678	0	1	0	0xa5
0x34720000	2406	0	1	0	0xa5
0x3472a000	2203	0	1	0	0xa5
0x3472e000	2112	0	1	0	0xa5
0x34736000	4570	0	1	0	0xa5
0x34738000	4043	0	1	0	0xa5
0x34744000	2952	0	1	0	0xa5
0x34748000	32177	0.189	1	10	0x20a5
0x3474c000	8568	0	1	0	0xa5
0x34768000	3227	0	1	0	0xa5
0x3476a000	3918	0	1	0	0xa5
0x34780000	2617	0	1	0	0xa5
0x34784000	3294	0	1	0	0xa5
0x34792000	2265	0	1	0	0xa5
0x347a0000	10211	0	1	0	0xa5
0x347a8000	3648	0	1	0	0xa5
0x347c2000	3587	0	1	0	0xa5
0x347c4000	6051	0	1	0	0xa5
0x347c8000	2573	0	1	0	0xa5
0x347ca000	3126	0	1	0	0xa5
0x34878000	2659	0	1	0	0xa5
0x34900000	2042	0	1	0	0xa5
0x349e6000	2832	0	1	0	0xa5
0x349ec000	2512	0	1	0	0xa5
0x349f0000	2489	0	1	0	0xa5
0x349f2000	2429	0	1	0	0xa5
0x34a3a000	2914	0	1	0	0xa5
0x34a50000	3214	0	1	0	0xa5
0x34a68000	2693	0	1	0	0xa5
0x34a8c000	2211	0	1	0	0xa5
0x34a90000	2390	0	1	0	0xa5
0x34aa8000	2739	0	1	0	0xa5
0x34ab4000	3252	0	1	0	0xa5
0x34aba000	3861	0	1	0	0xa5
0x34ac8000	2494	0	1	0	0xa5
0x34ad0000	2938	0	1	0	0xa5
0x34ad2000	2453	0	1	0	0xa5
0x34ad4000	2205	0	1	0	0xa5
0x34ad8000	6631	0	1	0	0xa5
0x34ae2000	2464	0	1	0	0xa5
0x34ae6000	2851	0	1	0	0xa5
0x34aec000	2571	0	1	0	0xa5
0x34af6000	4470	0	1	0	0xa5
0x34af8000	4002	0	1	0	0xa5
0x34b02000	3035	0	1	0	0xa5
0x34b08000	3658	0	1	0	0xa5
0x34b30000	2485	0	1	0	0xa5
0x34b38000	23040	1.521	1	4	0x20a5
0x34b3c000	3156	0	1	0	0xa5
0x34b42000	3444	0	1	0	0xa5
0x34b48000	6252	0	1	0	0xa5
0x34b4c000	7405	0	1	0	0xa5
0x34b4e000	2825	0	1	0	0xa5
0x34b50000	2039	0	1	0	0xa5
0x34b56000	3070	0	1	0	0xa5
0x34b64000	6159	0	1	0	0xa5
0x34b68000	2987	0	1	0	0xa5
0x34b6e000	8345	0	1	0	0xa5
0x34b70000	5509	0	1	0	0xa5
0x34b74000	5455	0	1	0	0xa5
0x34b88000	4152	0	1	0	0xa5
0x34b8c000	5157	0	1	0	0xa5
0x34baa000	2909	0	1	0	0xa5
0x34bc6000	4072	0	1	0	0xa5
0x34bdc000	4062	0	1	0	0xa5
0x34be2000	2244	0	1	0	0xa5
0x35034000	2242	0	1	0	0xa5
0x350b0000	2107	0	1	0	0xa5
0x350dc000	2075	0	1	0	0xa5
0x351a2000	3073	0	1	0	0xa5
0x351ae000	2022	0	1	0	0xa5
0x351e4000	4541	0	1	0	0xa5
0x351ee000	3516	0	1	0	0xa5
0x351f2000	2446	0	1	0	0xa5
0x3625e000	2792	1.193	1	0	0x20a5
0x36314000	3506	0	1	0	0xa5
0x36324000	2192	0	1	0	0xa5
0x36334000	2336	0	1	0	0xa5
0x36354000	3865	0	1	0	0xa5
0x36376000	2423	0	1	0	0xa5
0x36394000	3159	0	1	0	0xa5
0x36396000	2384	0	1	0	0xa5
0x363b4000	5802	2.22	1	8	0x20a5
0x363b6000	4068	0	1	0	0xa5
0x363d4000	5502	0	1	0	0xa5
0x363d6000	3477	0	1	0	0xa5
0x363e4000	4229	0	1	0	0xa5
0x363f4000	9517	0.391	1	1	0x20a5
0x363f6000	13095	-0.45	1	2	0x20a5
0x363f8000	2464	0	1	0	0xa5
0x36414000	13406	-0.329	1	3	0x20a5
0x36416000	2798	0	1	0	0xa5
0x36434000	3043	0	1	0	0xa5
0x36436000	6115	0	1	0	0xa5
0x36456000	30717	-0.254	1	0	0x20a5
0x36466000	2169	0	1	0	0xa5
0x36472000	2359	0	1	0	0xa5
0x36474000	38172	0.319	1	19	0x20a5
0x36476000	12388	3.346	1	11	0x20a5
0x3647a000	2184	0	1	0	0xa5
0x36484000	2132	0	1	0	0xa5
0x36488000	6805	0	1	0	0xa5
0x36494000	8288	0	1	0	0xa5
0x36496000	2917	0	1	0	0xa5
0x364a0000	4649	0	1	0	0xa5
0x364a6000	2526	0	1	0	0xa5
0x364b2000	4130	0	1	0	0xa5
0x364b6000	48297	0.544	1	7	0x20a5
0x364ba000	2348	0	1	0	0xa5
0x364d4000	40326	-0.014	1	1	0x20a5
0x364d6000	16884	-2.051	1	7	0x20a5
0x364da000	2502	0	1	0	0xa5
0x364e0000	2117	0	1	0	0xa5
0x364f4000	23612	0.13	1	2	0x20a5
0x364f6000	2153	0	1	0	0xa5
0x364fa000	3339	0	1	0	0xa5
0x36512000	9647	0	1	0	0xa5
0x36514000	6087	0	1	0	0xa5
0x36516000	5409	0	1	0	0xa5
0x3651c000	2752	0	1	0	0xa5
0x36528000	2696	0	1	0	0xa5
0x36534000	21655	0.703	1	8	0x20a5
0x36538000	2100	0	1	0	0xa5
0x3653a000	2951	0	1	0	0xa5
0x36550000	2295	0	1	0	0xa5
0x36556000	2685	0	1	0	0xa5
0x3655a000	3653	0	1	0	0xa5
0x3655c000	2056	0	1	0	0xa5
0x36562000	3773	0	1	0	0xa5
0x36566000	2895	0	1	0	0xa5
0x36574000	4246	0	1	0	0xa5
0x36576000	3145	0	1	0	0xa5
0x3657c000	7595	0	1	0	0xa5
0x3657e000	2014	0	1	0	0xa5
0x36588000	6132	0	1	0	0xa5
0x36594000	2199	0	1	0	0xa5
0x36596000	2495	0	1	0	0xa5
0x3659a000	19905	-0.539	1	3	0x20a5
0x3659c000	4686	0	1	0	0xa5
0x365a0000	2763	0	1	0	0xa5
0x365a4000	2702	0	1	0	0xa5
0x365a6000	2475	0	1	0	0xa5
0x365a8000	3930	0	1	0	0xa5
0x365aa000	2898	0	1	0	0xa5
0x365b6000	2111	0	1	0	0xa5
0x365b8000	2214	0	1	0	0xa5
0x365ba000	4501	0	1	0	0xa5
0x365bc000	21177	-0.059	1	3	0x20a5
0x365be000	2073	0	1	0	0xa5
0x365c0000	6117	0	1	0	0xa5
0x365c8000	19497	0.914	1	0	0x20a5
0x365ca000	2300	0	1	0	0xa5
0x365d0000	3246	0	1	0	0xa5
0x365d2000	3157	0	1	0	0xa5
0x365d8000	2679	0	1	0	0xa5
0x365da000	6415	0	1	0	0xa5
0x365dc000	4978	0	1	0	0xa5
0x365e4000	3263	0	1	0	0xa5
0x365e6000	3616	0	1	0	0xa5
0x365e8000	24482	0	1	0	0xa5
0x365ea000	4754	0	1	0	0xa5
0x365f2000	2535	0	1	0	0xa5
0x365f6000	2870	0	1	0	0xa5
0x365f8000	2779	0	1	0	0xa5
0x365fa000	2115	0	1	0	0xa5
0x365fc000	2447	0	1	0	0xa5
0x36608000	4666	0	1	0	0xa5
0x3660a000	10099	0	1	0	0xa5
0x36614000	2175	0	1	0	0xa5
0x36618000	4554	0	1	0	0xa5
0x3661a000	6035	0	1	0	0xa5
0x3661c000	12431	0	1	0	0xa5
0x3661e000	2632	0	1	0	0xa5
0x36624000	13401	0	1	0	0xa5
0x36626000	2812	0	1	0	0xa5
0x36628000	5742	0	1	0	0xa5
0x3662a000	5154	0	1	0	0xa5
0x36634000	3304	0	1	0	0xa5
0x36638000	18121	0	1	0	0xa5
0x3663a000	2670	0	1	0	0xa5
0x3663c000	18903	0	1	0	0xa5
0x3663e000	8657	0	1	0	0xa5
0x36640000	29724	-0.469	1	0	0x20a5
0x36642000	2604	0	1	0	0xa5
0x36644000	3413	0	1	0	0xa5
0x36652000	3160	0	1	0	0xa5
0x36658000	3133	0	1	0	0xa5
0x3665a000	41344	-0.04	1	2	0x20a5
0x3665c000	20247	0	1	0	0xa5
0x3665e000	3502	0	1	0	0xa5
0x36662000	4958	0	1	0	0xa5
0x36664000	6325	0	1	0	0xa5
0x36668000	2717	0	1	0	0xa5
0x3666a000	3556	0	1	0	0xa5
0x36674000	3545	0	1	0	0xa5
0x36678000	4419	0	1	0	0xa5
0x3667a000	14711	0	1	0	0xa5
0x3667c000	114775	0.219	1	9	0x20a5
0x3667e000	13177	0	1	0	0xa5
0x36680000	9827	0	1	0	0xa5
0x36682000	3220	0	1	0	0xa5
0x36684000	2986	0	1	0	0xa5
0x36690000	3143	0	1	0	0xa5
0x3669a000	12352	-0.209	1	19	0x20a5
0x3669c000	10209	0	1	0	0xa5
0x3669e000	7330	0	1	0	0xa5
0x366a2000	5926	0	1	0	0xa5
0x366a6000	10764	0	1	0	0xa5
0x366a8000	12861	0	1	0	0xa5
0x366b4000	2436	0	1	0	0xa5
0x366b8000	2241	0	1	0	0xa5
0x366ba000	14271	0	1	0	0xa5
0x366bc000	3490	0	1	0	0xa5
0x366be000	5896	0	1	0	0xa5
0x366c2000	8088	0	1	0	0xa5
0x366da000	25833	0.023	1	1	0x20a5
0x366dc000	3090	0	1	0	0xa5
0x366e0000	3040	0	1	0	0xa5
0x366e2000	17358	-1.743	1	8	0x20a5
0x366fa000	2174	0	1	0	0xa5
0x366fc000	7878	0	1	0	0xa5
0x3671a000	22579	0.035	1	14	0x20a5
0x3671c000	8191	0	1	0	0xa5
0x3673a000	5110	0	1	0	0xa5
0x3673c000	7173	0	1	0	0xa5
0x36742000	2955	0	1	0	0xa5
0x3675a000	4672	0	1	0	0xa5
0x3675c000	4799	0	1	0	0xa5
0x3677c000	5910	0	1	0	0xa5
0x36782000	2027	0	1	0	0xa5
0x3679a000	3434	0	1	0	0xa5
0x3679c000	2942	0	1	0	0xa5
0x367a6000	3152	0	1	0	0xa5
0x367b8000	4264	0	1	0	0xa5
0x367bc000	2962	0	1	0	0xa5
0x367c6000	3181	0	1	0	0xa5
0x367d8000	5189	0	1	0	0xa5
0x367da000	3277	0	1	0	0xa5
0x367dc000	2049	0	1	0	0xa5
0x36836000	2376	0	1	0	0xa5
0x368ea000	2595	0	1	0	0xa5
0x36956000	2243	0	1	0	0xa5
0x369b6000	13755	0.707	1	5	0x20a5
0x369d0000	2737	0	1	0	0xa5
0x369d6000	13638	1.235	1	0	0x20a5
0x369f2000	2390	0	1	0	0xa5
0x36a04000	2129	0	1	0	0xa5
0x36a34000	8802	9.131	1	14	0x20a5
0x36a36000	14262	-2.056	1	4	0x20a5
0x36a40000	2716	0	1	0	0xa5
0x36a4c000	2072	0	1	0	0xa5
0x36a66000	2919	0	1	0	0xa5
0x36a80000	2122	0	1	0	0xa5
0x36a86000	2588	0	1	0	0xa5
0x36a88000	2247	0	1	0	0xa5
0x36a9c000	3376	0	1	0	0xa5
0x36aa8000	2967	0	1	0	0xa5
0x36aaa000	2383	0	1	0	0xa5
0x36ab4000	2173	0	1	0	0xa5
0x36abc000	3473	0	1	0	0xa5
0x36ac2000	2235	0	1	0	0xa5
0x36ac4000	5772	0	1	0	0xa5
0x36ace000	3547	0	1	0	0xa5
0x36ad4000	3766	0	1	0	0xa5
0x36adc000	2338	0	1	0	0xa5
0x36ae6000	2142	0	1	0	0xa5
0x36ae8000	8954	0	1	0	0xa5
0x36af8000	2397	0	1	0	0xa5
0x36afa000	2214.12	0	1	0	0x8a5
0x36b00000	2273	0	1	0	0xa5
0x36b08000	5419	0	1	0	0xa5
0x36b18000	3527	0	1	0	0xa5
0x36b1a000	5390	0	1	0	0xa5
0x36b1e000	3310	0	1	0	0xa5
0x36b24000	5320	0	1	0	0xa5
0x36b2a000	5044	0	1	0	0xa5
0x36b30000	2227	0	1	0	0xa5
0x36b36000	4109	0	1	0	0xa5
0x36b38000	2488	0	1	0	0xa5
0x36b3a000	11439	0	1	0	0xa5
0x36b3c000	3598	0	1	0	0xa5
0x36b40000	2740	0	1	0	0xa5
0x36b4c000	2683	0	1	0	0xa5
0x36b52000	2058	0	1	0	0xa5
0x36b56000	4121	0	1	0	0xa5
0x36b58000	4013	0	1	0	0xa5
0x36b5c000	3878	0	1	0	0xa5
0x36b60000	6429	0	1	0	0xa5
0x36b64000	2413	0	1	0	0xa5
0x36b70000	3396	0	1	0	0xa5
0x36b76000	5889	0	1	0	0xa5
0x36b78000	3896	0	1	0	0xa5
0x36b7a000	28616	0	1	0	0xa5
0x36b7c000	37994	-0.717	1	7	0x20a5
0x36b7e000	6094	0	1	0	0xa5
0x36b80000	3255	0	1	0	0xa5
0x36b82000	4320	0	1	0	0xa5
0x36b84000	9742	0	1	0	0xa5
0x36b86000	2637	0	1	0	0xa5
0x36b88000	2466	0	1	0	0xa5
0x36b8a000	2632	0	1	0	0xa5
0x36b9a000	11049	0	1	0	0xa5
0x36b9c000	25419	0	1	0	0xa5
0x36b9e000	3751	0	1	0	0xa5
0x36ba0000	2404	0	1	0	0xa5
0x36ba2000	2687	0	1	0	0xa5
0x36ba4000	2800	0	1	0	0xa5
0x36ba6000	26779	-1.101	1	0	0x20a5
0x36baa000	2267	0	1	0	0xa5
0x36bb4000	6544	0	1	0	0xa5
0x36bb8000	3859	0	1	0	0xa5
0x36bba000	3841	0	1	0	0xa5
0x36bbc000	7379	0	1	0	0xa5
0x36bc2000	3899	0	1	0	0xa5
0x36bc6000	5338	0	1	0	0xa5
0x36bc8000	4385	0	1	0	0xa5
0x36bca000	4670	0	1	0	0xa5
0x36bd4000	6726	0	1	0	0xa5
0x36bda000	3545	0	1	0	0xa5
0x36bdc000	11399	0	1	0	0xa5
0x36be4000	6494	0	1	0	0xa5
0x36bf2000	2472	0	1	0	0xa5
0x36bfa000	2157	0	1	0	0xa5
0x37048000	2190	0	1	0	0xa5
0x3706a000	2195	0	1	0	0xa5
0x3710e000	2326	0	1	0	0xa5
0x37110000	2296	0	1	0	0xa5
0x37124000	2368	0	1	0	0xa5
0x3712e000	2982	0	1	0	0xa5
0x3715a000	2668	0	1	0	0xa5
0x37160000	2110	0	1	0	0xa5
0x37168000	2602	0	1	0	0xa5
0x3717c000	3270	0	1	0	0xa5
0x37180000	2020	0	1	0	0xa5
0x37188000	2756	0	1	0	0xa5
0x37194000	2524	0	1	0	0xa5
0x3719c000	7222	0	1	0	0xa5
0x371a8000	4115	0	1	0	0xa5
0x371ac000	2086	0	1	0	0xa5
0x371b4000	4129	0	1	0	0xa5
0x371c8000	2398	0	1	0	0xa5
0x371fc000	6269	0	1	0	0xa5
0x44030610	2117.9	1.23616	-11	1539	0xa2a2
0x44030700	5912.25	0.643881	-11	1288	0xa2a2
0x44034600	2871.3	1.11834	-11	2052	0xa2a2
0x44034610	3496.99	1.16319	-11	2309	0xa2a2
0x44034700	7626.86	0.753856	-11	3079	0xa2a2
Sum of 187156 cell energies: 1.1406e+06
Event 225293035 contains 187650 CaloCells
ID	Energy	Time	Qual	prov
0x2c20044c	2327	0	1	0	0xa5
0x2c20064c	3500	0	1	0	0xa5
0x2cb02e08	3718	-0.115	0	74	0x20a5
0x2cb03008	14392	0.151	1	0	0x20a5
0x2cb03208	4086	0.223	0	441	0x20a5
0x2cc43824	2657	0.766	0	7	0x20a5
0x2cc43826	4482	0.06	0	126	0x20a5
0x2cc43a24	7061	0.145	0	17	0x20a5
0x2cc43a26	9466	0.175	0	102	0x20a5
0x2d005e62	5489	-0.326	0	326	0x20a5
0x2d22f462	5777	0.012	1	4	0x20a5
0x2d22f662	8424	0.157	1	1	0x20a5
0x2d22f862	2644	0.105	0	14	0x20a5
0x2d405d8c	2160	0.299	0	24	0x20a5
0x2d405d8e	3753	-0.778	0	14	0x20a5
0x2d405f8c	11516	0.049	0	31	0x20a5
0x2d405f8e	36556	0.157	0	9	0x20a5
0x2d405f90	2214	0.366	0	38	0x20a5
0x2d40609e	2546	0.135	0	11	0x20a5
0x2d4060a0	5567	0.632	0	24	0x20a5
0x2d40629c	2992	1.203	0	1	0x20a5
0x2d40629e	4924	-0.205	0	10	0x20a5
0x2d4062a0	2930	0.169	0	22	0x20a5
0x2d40649c	2282	1.488	0	17	0x20a5
0x2d40649e	4560	0.179	0	4	0x20a5
0x2d80744c	2344	-1.083	0	43	0x20a5
0x2ea0007a	3683	0	1	0	0xa5
0x2ea0007c	2991	0	1	0	0xa5
0x2ea00808	8182	-1.141	1	10	0x20a5
0x2ea00a08	8409	0.058	1	0	0x20a5
0x2ea00a0a	2708	0	1	0	0xa5
0x30409000	2103	0	1	0	0xa5
0x30497000	2251	0	1	0	0xa5
0x31498000	2575	0	1	0	0xa5
0x32441000	2071	0	1	0	0xa5
0x32482000	3938	0	1	0	0xa5
0x32c82000	2252	0	1	0	0xa5
0x343b0000	10138	1.503	1	3	0x20a5
0x343ca000	5622	0	1	0	0xa5
0x343d0000	5254	0	1	0	0xa5
0x34406000	2074	0	1	0	0xa5
0x34418000	2059	0	1	0	0xa5
0x34432000	2447	0	1	0	0xa5
0x34450000	3256	0	1	0	0xa5
0x3445e000	2377	0	1	0	0xa5
0x3448a000	3662	0	1	0	0xa5
0x34490000	2171	0	1	0	0xa5
0x344de000	2130	0	1	0	0xa5
0x344ea000	2449	0	1	0	0xa5
0x344ec000	2907	0	1	0	0xa5
0x34500000	9320	0	1	0	0xa5
0x34502000	3031	0	1	0	0xa5
0x3450e000	7866	0	1	0	0xa5
0x34510000	5633	0	1	0	0xa5
0x3452e000	19708	0.375	1	0	0x20a5
0x3454c000	2260	0	1	0	0xa5
0x34556000	2317	0	1	0	0xa5
0x3455e000	3236	0	1	0	0xa5
0x3456a000	5492	0	1	0	0xa5
0x34576000	5137	0	1	0	0xa5
0x34580000	15169	-0.824	1	4	0x20a5
0x3458c000	3248	0	1	0	0xa5
0x3458e000	2982	0	1	0	0xa5
0x34590000	2954	0	1	0	0xa5
0x34596000	2674	0	1	0	0xa5
0x345a0000	2188	0	1	0	0xa5
0x345aa000	2480	0	1	0	0xa5
0x345ac000	8843	0	1	0	0xa5
0x345ae000	6957	0	1	0	0xa5
0x345b6000	2022	0	1	0	0xa5
0x345ce000	2725	0	1	0	0xa5
0x345d4000	2428	0	1	0	0xa5
0x345d6000	3463	0	1	0	0xa5
0x345e0000	2750	0	1	0	0xa5
0x345e2000	2965	0	1	0	0xa5
0x345e6000	2108	0	1	0	0xa5
0x345ea000	2910	0	1	0	0xa5
0x345ee000	3770	0	1	0	0xa5
0x345f6000	2406	0	1	0	0xa5
0x345fc000	3372	0	1	0	0xa5
0x34602000	4047	0	1	0	0xa5
0x34614000	8963	0	1	0	0xa5
0x3461c000	2444	0	1	0	0xa5
0x3461e000	12887	0	1	0	0xa5
0x34624000	2439	0	1	0	0xa5
0x3462a000	4262	0	1	0	0xa5
0x34634000	8129	0	1	0	0xa5
0x34636000	2567	0	1	0	0xa5
0x34642000	3325	0	1	0	0xa5
0x34648000	2417	0	1	0	0xa5
0x3464e000	2407	0	1	0	0xa5
0x34654000	3989	0	1	0	0xa5
0x3465e000	2487	0	1	0	0xa5
0x34672000	4638	0	1	0	0xa5
0x3467e000	6318	0	1	0	0xa5
0x34690000	3600	0	1	0	0xa5
0x346a0000	2835	0	1	0	0xa5
0x346a2000	3269	0	1	0	0xa5
0x346b4000	2267	0	1	0	0xa5
0x346c0000	2229	0	1	0	0xa5
0x346f8000	2243	0	1	0	0xa5
0x34710000	3801	0	1	0	0xa5
0x34734000	3100	0	1	0	0xa5
0x347b8000	2552	0	1	0	0xa5
0x347ce000	2674	0	1	0	0xa5
0x347d0000	4230	0	1	0	0xa5
0x34858000	2762	0	1	0	0xa5
0x34976000	2755	0	1	0	0xa5
0x34978000	2217	0	1	0	0xa5
0x349bc000	2083	0	1	0	0xa5
0x34a02000	3426	0	1	0	0xa5
0x34a12000	4846	0	1	0	0xa5
0x34a1a000	2776	0	1	0	0xa5
0x34a28000	2196	0	1	0	0xa5
0x34a32000	3810	0	1	0	0xa5
0x34a40000	2832	0	1	0	0xa5
0x34a50000	3413	0	1	0	0xa5
0x34a5c000	2197	0	1	0	0xa5
0x34a5e000	2653	0	1	0	0xa5
0x34a90000	3387	0	1	0	0xa5
0x34a92000	8360	0	1	0	0xa5
0x34aa2000	2860	0	1	0	0xa5
0x34ab2000	2540	0	1	0	0xa5
0x34ac4000	2250	0	1	0	0xa5
0x34aca000	2545	0	1	0	0xa5
0x34acc000	2729	0	1	0	0xa5
0x34ae0000	2620	0	1	0	0xa5
0x34aea000	2940	0	1	0	0xa5
0x34af6000	2643	0	1	0	0xa5
0x34b0c000	2180	0	1	0	0xa5
0x34b1c000	3543	0	1	0	0xa5
0x34b1e000	4584	0	1	0	0xa5
0x34b20000	3215	0	1	0	0xa5
0x34b22000	3299	0	1	0	0xa5
0x34b28000	5879	0	1	0	0xa5
0x34b3a000	3229	0	1	0	0xa5
0x34b4a000	3422	0	1	0	0xa5
0x34b4e000	5381	0	1	0	0xa5
0x34b5c000	2336	0	1	0	0xa5
0x34b62000	5183	0	1	0	0xa5
0x34b66000	2037	0	1	0	0xa5
0x34b6a000	3581	0	1	0	0xa5
0x34b6c000	6712	0	1	0	0xa5
0x34b74000	5344	0	1	0	0xa5
0x34b8c000	3557	0	1	0	0xa5
0x34b94000	2633	0	1	0	0xa5
0x34b96000	2213	0	1	0	0xa5
0x34ba0000	2293	0	1	0	0xa5
0x34bae000	2144	0	1	0	0xa5
0x34bb0000	2791	0	1	0	0xa5
0x34bb4000	2805	0	1	0	0xa5
0x34bbc000	3726	0	1	0	0xa5
0x34bdc000	2481	0	1	0	0xa5
0x34be2000	2085	0	1	0	0xa5
0x34bea000	4304	0	1	0	0xa5
0x3500a000	2104	0	1	0	0xa5
0x35118000	2454	0	1	0	0xa5
0x3516a000	2120	0	1	0	0xa5
0x35194000	2524	0	1	0	0xa5
0x351d8000	2010	0	1	0	0xa5
0x351dc000	2259	0	1	0	0xa5
0x351f0000	2581	0	1	0	0xa5
0x351f4000	2137	0	1	0	0xa5
0x351f8000	2801	0	1	0	0xa5
0x363aa000	2159	0	1	0	0xa5
0x363ba000	2019	0	1	0	0xa5
0x363e4000	2030	0	1	0	0xa5
0x364d2000	2029	0	1	0	0xa5
0x364ee000	2460	0	1	0	0xa5
0x36500000	2214	0	1	0	0xa5
0x3651e000	2003	0	1	0	0xa5
0x36556000	4229	0	1	0	0xa5
0x36560000	2033	0	1	0	0xa5
0x36566000	4608	0	1	0	0xa5
0x3657a000	2180	0	1	0	0xa5
0x3658a000	3444	0	1	0	0xa5
0x3658c000	3951	0	1	0	0xa5
0x3658e000	2257	0	1	0	0xa5
0x365aa000	2538	0	1	0	0xa5
0x365b8000	3183	0	1	0	0xa5
0x365c4000	3249	0	1	0	0xa5
0x365c6000	2328	0	1	0	0xa5
0x365e2000	3003	0	1	0	0xa5
0x365e6000	3159	0	1	0	0xa5
0x365f4000	2946	0	1	0	0xa5
0x36606000	6677	0	1	0	0xa5
0x36622000	3815	0	1	0	0xa5
0x36626000	2523	0	1	0	0xa5
0x36630000	3012	0	1	0	0xa5
0x3663a000	3237	0	1	0	0xa5
0x36644000	7940	0	1	0	0xa5
0x36652000	2857	0	1	0	0xa5
0x36660000	2183	0	1	0	0xa5
0x36662000	2590	0	1	0	0xa5
0x36664000	2869	0	1	0	0xa5
0x36668000	2721	0	1	0	0xa5
0x36670000	3683	0	1	0	0xa5
0x36684000	4751	0	1	0	0xa5
0x36686000	2403	0	1	0	0xa5
0x3669e000	3622	0	1	0	0xa5
0x366ae000	8889	0	1	0	0xa5
0x366be000	2367	0	1	0	0xa5
0x366e4000	2293	0	1	0	0xa5
0x366ee000	2339	0	1	0	0xa5
0x36702000	5305	0	1	0	0xa5
0x3673c000	2876	0	1	0	0xa5
0x36740000	2121	0	1	0	0xa5
0x36742000	10084	0	1	0	0xa5
0x3674a000	4423	0	1	0	0xa5
0x3675a000	2918	0	1	0	0xa5
0x36762000	4353	0	1	0	0xa5
0x36764000	6752	0	1	0	0xa5
0x36770000	4731	0	1	0	0xa5
0x36780000	2090	0	1	0	0xa5
0x36782000	26775	0	1	0	0xa5
0x36788000	2597	0	1	0	0xa5
0x3678c000	2444	0	1	0	0xa5
0x367a2000	4443	0	1	0	0xa5
0x367b0000	2299	0	1	0	0xa5
0x367ba000	2182	0	1	0	0xa5
0x36840000	2263	0	1	0	0xa5
0x369ca000	2268	0	1	0	0xa5
0x369ea000	3650	0	1	0	0xa5
0x36a08000	2187	0	1	0	0xa5
0x36a28000	4129	0	1	0	0xa5
0x36a4a000	2988	0	1	0	0xa5
0x36a58000	2248	0	1	0	0xa5
0x36a6a000	3433	0	1	0	0xa5
0x36a72000	2346	0	1	0	0xa5
0x36aae000	3162	0	1	0	0xa5
0x36ad6000	2095	0	1	0	0xa5
0x36ad8000	2088	0	1	0	0xa5
0x36ae2000	2491	0	1	0	0xa5
0x36ae6000	6043	0	1	0	0xa5
0x36b00000	2882	0	1	0	0xa5
0x36b02000	3957	0	1	0	0xa5
0x36b06000	3260	0	1	0	0xa5
0x36b0e000	4309	0	1	0	0xa5
0x36b12000	2548	0	1	0	0xa5
0x36b14000	2475	0	1	0	0xa5
0x36b1c000	3219	0	1	0	0xa5
0x36b20000	6331	0	1	0	0xa5
0x36b34000	2271	0	1	0	0xa5
0x36b36000	2383	0	1	0	0xa5
0x36b3a000	3014	0	1	0	0xa5
0x36b40000	4020	0	1	0	0xa5
0x36b42000	3471	0	1	0	0xa5
0x36b46000	3124	0	1	0	0xa5
0x36b4c000	2336	0	1	0	0xa5
0x36b52000	2400	0	1	0	0xa5
0x36b58000	6847	0	1	0	0xa5
0x36b60000	4167	0	1	0	0xa5
0x36b6e000	3646	0	1	0	0xa5
0x36b72000	4047	0	1	0	0xa5
0x36b7a000	5354	0	1	0	0xa5
0x36b7e000	6414	0	1	0	0xa5
0x36b80000	2257	0	1	0	0xa5
0x36b82000	2500	0	1	0	0xa5
0x36b84000	7586	0	1	0	0xa5
0x36b9c000	6187	0	1	0	0xa5
0x36ba2000	7142	0	1	0	0xa5
0x36ba4000	7337	0	1	0	0xa5
0x36bae000	3225	0	1	0	0xa5
0x36bc2000	3160	0	1	0	0xa5
0x36bc4000	7928	0	1	0	0xa5
0x36bc8000	3994	0	1	0	0xa5
0x36bcc000	8459	0	1	0	0xa5
0x36bd4000	4212	0	1	0	0xa5
0x36bf4000	4632	0	1	0	0xa5
0x3700c000	3838	17.184	1	0	0x20a5
0x37014000	2424	0	1	0	0xa5
0x37060000	2089	0	1	0	0xa5
0x370d0000	2190	0	1	0	0xa5
0x37140000	2252	0	1	0	0xa5
0x37178000	2125	0	1	0	0xa5
0x3717a000	2034	0	1	0	0xa5
0x371a8000	2120	0	1	0	0xa5
0x371c8000	2845	0	1	0	0xa5
0x371d8000	2427	0	1	0	0xa5
0x371f4000	4238	0	1	0	0xa5
0x4804cb10	4244.17	0.944983	-11	1287	0xa2a2
0x4804cc10	3439.75	-0.275531	-11	1282	0xa2a2
0x48050b10	3142.46	1.58853	-11	2057	0xa2a2
0x48050c00	11629	1.10141	-11	5398	0xa2a2
0x48050c10	2641.13	1.66407	-11	2568	0xa2a2
0x48050d00	3244.74	0.00472917	-11	770	0xa2a2
0x4c054d30	2646.45	2.08916	-3	18	0xa2
Sum of 187363 cell energies: 733551
Event 225293042 contains 187650 CaloCells
ID	Energy	Time	Qual	prov
0x2c200030	6014	0.046	1	2	0x20a5
0x2c200032	3711	0	1	0	0xa5
0x2c200412	3502	0	1	0	0xa5
0x2c200414	3408	0	1	0	0xa5
0x2c200434	6231	1.03	1	9	0x20a5
0x2c200436	5194	-1.735	1	5	0x20a5
0x2c200622	3921	0	1	0	0xa5
0x2c200624	2515	0	1	0	0xa5
0x2c20063a	2310	0	1	0	0xa5
0x2c200644	2068	0	1	0	0xa5
0x2c20084c	3502	0	1	0	0xa5
0x2c200a0a	2184	0	1	0	0xa5
0x2c200a12	2502	0	1	0	0xa5
0x2c200a14	2059	0	1	0	0xa5
0x2ce01762	2944	0.361	0	30	0x20a5
0x2ce01764	2334	0.316	0	160	0x20a5
0x2d4013cc	2261	0.058	0	28	0x20a5
0x2d4015ca	2868	-0.82	0	50	0x20a5
0x2d4015cc	6350	-0.265	0	122	0x20a5
0x2d404f10	3449	-1.029	0	14	0x20a5
0x2d404f12	5718	0.392	0	4	0x20a5
0x2d405112	2063	-0.228	0	55	0x20a5
0x2e441dd2	2797	0.309	0	25	0x20a5
0x2ea00020	2427	0	1	0	0xa5
0x2ea00226	2771	0	1	0	0xa5
0x2ea00422	4839	-0.35	1	5	0x20a5
0x2ea00470	2366	0	1	0	0xa5
0x2ea00670	3264	0	1	0	0xa5
0x2ea00678	6081	-1.409	1	2	0x20a5
0x2ea00826	2006	0	1	0	0xa5
0x300ba000	2299	-0.687	1	8	0x20a5
0x3016d000	3684	9.336	1	9	0x20a5
0x301ac000	2325	1.828	1	11	0x20a5
0x301df000	2068	-4.037	1	22	0x20a5
0x3040a000	2159	0	1	0	0xa5
0x30412000	4897	1.422	1	102	0x20a5
0x30442000	2898	0	1	0	0xa5
0x30450000	2326	0	1	0	0xa5
0x3048f000	3452	0	1	0	0xa5
0x3096c000	31289	-0.363	1	28	0x20a5
0x3096d000	2195	0	1	0	0xa5
0x309ac000	8915	0.063	1	27	0x20a5
0x30c12000	2407	0	1	0	0xa5
0x310c8000	2158	-4.068	1	74	0x20a5
0x31455000	2978	0	1	0	0xa5
0x32082000	4525	3.473	1	21	0x20a5
0x320ba000	2185	3.681	1	36	0x20a5
0x321c8000	3157	4.345	1	71	0x20a5
0x32414000	4863	-1.551	1	48	0x20a5
0x3241d000	2784	0	1	0	0xa5
0x32486000	2265	0	1	0	0xa5
0x3249d000	2562	0	1	0	0xa5
0x3291f000	8716	1.176	1	11	0x20a5
0x329b7000	2760	-8.455	1	1	0x20a5
0x32c1b000	2095	0	1	0	0xa5
0x32c8f000	2146	0	1	0	0xa5
0x3341e000	7823	6.302	1	29	0x20a5
0x342b0000	2285	0	1	0	0xa5
0x342ba000	3321	0	1	0	0xa5
0x34344000	2601	0	1	0	0xa5
0x34350000	6987	2.423	1	7	0x20a5
0x3435e000	2027	0	1	0	0xa5
0x3437e000	2675	0	1	0	0xa5
0x34394000	2428	0	1	0	0xa5
0x34398000	2371	0	1	0	0xa5
0x343da000	3235	0	1	0	0xa5
0x343de000	3125	0	1	0	0xa5
0x343e2000	2102	0	1	0	0xa5
0x343e6000	2693	0	1	0	0xa5
0x343f0000	2018	0	1	0	0xa5
0x343fe000	3724	0	1	0	0xa5
0x34418000	4657	0	1	0	0xa5
0x3441a000	3026	0	1	0	0xa5
0x3441e000	7523	3.902	1	4	0x20a5
0x3443e000	2025	0	1	0	0xa5
0x3445a000	2658	0	1	0	0xa5
0x3446e000	2908	0	1	0	0xa5
0x3447e000	2677	0	1	0	0xa5
0x3448e000	3825	0	1	0	0xa5
0x34498000	2411	0	1	0	0xa5
0x3449e000	2419	0	1	0	0xa5
0x344a6000	2045	0	1	0	0xa5
0x344b6000	2082	0	1	0	0xa5
0x344cc000	2208	0	1	0	0xa5
0x344d2000	2740	0	1	0	0xa5
0x344e2000	2706	0	1	0	0xa5
0x344e8000	2209	0	1	0	0xa5
0x344f0000	2664	0	1	0	0xa5
0x34500000	2844	0	1	0	0xa5
0x3450e000	4629	0	1	0	0xa5
0x34520000	3244	0	1	0	0xa5
0x3452c000	5361	0	1	0	0xa5
0x34540000	8449	0	1	0	0xa5
0x3454a000	4391	0	1	0	0xa5
0x3454c000	3353	0	1	0	0xa5
0x34560000	7151	0	1	0	0xa5
0x34568000	3729	0	1	0	0xa5
0x3456c000	3609	0	1	0	0xa5
0x3457a000	2840	0	1	0	0xa5
0x34582000	2845	0	1	0	0xa5
0x3458a000	4618	0	1	0	0xa5
0x3458c000	4413	0	1	0	0xa5
0x34596000	4673	0	1	0	0xa5
0x345a0000	3591	0	1	0	0xa5
0x345ae000	2096	0	1	0	0xa5
0x345b2000	8116	0	1	0	0xa5
0x345b6000	5457	0	1	0	0xa5
0x345ba000	2829	0	1	0	0xa5
0x345be000	2660	0	1	0	0xa5
0x345c0000	4956	0	1	0	0xa5
0x345c2000	2431	0	1	0	0xa5
0x345c6000	2221	0	1	0	0xa5
0x345ca000	2943	0	1	0	0xa5
0x345d0000	2580	0	1	0	0xa5
0x345d2000	2992	0	1	0	0xa5
0x345d6000	4970	0	1	0	0xa5
0x345dc000	2433	0	1	0	0xa5
0x345de000	7390	0	1	0	0xa5
0x345e2000	5596	0	1	0	0xa5
0x345e8000	2305	0	1	0	0xa5
0x345f2000	3140	0	1	0	0xa5
0x345f6000	6890	0	1	0	0xa5
0x345f8000	8201	0	1	0	0xa5
0x345fe000	7511	0	1	0	0xa5
0x34600000	17764	0	1	0	0xa5
0x34602000	3560	0	1	0	0xa5
0x34604000	3078	0	1	0	0xa5
0x34606000	2440	0	1	0	0xa5
0x34608000	3128	0	1	0	0xa5
0x3460a000	2189	0	1	0	0xa5
0x3460c000	3231	0	1	0	0xa5
0x34610000	4179	0	1	0	0xa5
0x34612000	2138	0	1	0	0xa5
0x34616000	3192	0	1	0	0xa5
0x34618000	4292	0	1	0	0xa5
0x3461e000	2804	0	1	0	0xa5
0x34620000	4779	0	1	0	0xa5
0x34622000	10097	0	1	0	0xa5
0x34628000	11158	0	1	0	0xa5
0x3462a000	2404	0	1	0	0xa5
0x34638000	10204	0	1	0	0xa5
0x3463a000	2699	0	1	0	0xa5
0x3463c000	5908	0	1	0	0xa5
0x34640000	5363	0	1	0	0xa5
0x34642000	7836	0	1	0	0xa5
0x34644000	6821	0	1	0	0xa5
0x34648000	2968	0	1	0	0xa5
0x3464c000	2335	0	1	0	0xa5
0x34650000	2304	0	1	0	0xa5
0x34652000	8032	0	1	0	0xa5
0x34654000	5718	0	1	0	0xa5
0x3465a000	3466	0	1	0	0xa5
0x3465c000	2440	0	1	0	0xa5
0x34660000	14130	0	1	0	0xa5
0x34666000	2546	0	1	0	0xa5
0x34668000	4179	0	1	0	0xa5
0x3466a000	4483	0	1	0	0xa5
0x3466c000	2979	0	1	0	0xa5
0x34670000	49269	-0.417	1	24	0x20a5
0x34676000	2838	0	1	0	0xa5
0x3467a000	4344	0	1	0	0xa5
0x3467c000	11254	0	1	0	0xa5
0x3467e000	3395	0	1	0	0xa5
0x34680000	14461	0	1	0	0xa5
0x34686000	2151	0	1	0	0xa5
0x34688000	3143	0	1	0	0xa5
0x34690000	10744	0	1	0	0xa5
0x3469a000	2940	0	1	0	0xa5
0x3469c000	2113	0	1	0	0xa5
0x3469e000	5541	0	1	0	0xa5
0x346a8000	2592	0	1	0	0xa5
0x346b8000	2270	0	1	0	0xa5
0x346be000	7600	0	1	0	0xa5
0x346ce000	2582	0	1	0	0xa5
0x346d4000	2233	0	1	0	0xa5
0x346da000	23222	0.437	1	26	0x20a5
0x346dc000	2453	0	1	0	0xa5
0x346de000	4930	0	1	0	0xa5
0x346e8000	2397	0	1	0	0xa5
0x346ec000	2342	0	1	0	0xa5
0x346f4000	2259	0	1	0	0xa5
0x346fc000	2114	0	1	0	0xa5
0x346fe000	4180	0	1	0	0xa5
0x34708000	7934	0	1	0	0xa5
0x3470c000	2592	0	1	0	0xa5
0x34710000	3572	0	1	0	0xa5
0x34712000	2162	0	1	0	0xa5
0x34718000	4376	0	1	0	0xa5
0x3471a000	10953	0	1	0	0xa5
0x3471c000	3947	0	1	0	0xa5
0x3471e000	2515	0	1	0	0xa5
0x34728000	2593	0	1	0	0xa5
0x3472e000	9617	0	1	0	0xa5
0x34732000	2753	0	1	0	0xa5
0x34736000	3951	0	1	0	0xa5
0x34738000	2893	0	1	0	0xa5
0x3473e000	3824	0	1	0	0xa5
0x34740000	9466	0	1	0	0xa5
0x3474c000	6063	0	1	0	0xa5
0x3474e000	2733	0	1	0	0xa5
0x34750000	2366	0	1	0	0xa5
0x34752000	8857	0	1	0	0xa5
0x3475a000	9965	0	1	0	0xa5
0x3475c000	8050	0	1	0	0xa5
0x3475e000	3479	0	1	0	0xa5
0x34768000	8592	0	1	0	0xa5
0x34772000	4692	0	1	0	0xa5
0x3477c000	4283	0	1	0	0xa5
0x34784000	2007	0	1	0	0xa5
0x34786000	2157	0	1	0	0xa5
0x34788000	6290	0	1	0	0xa5
0x3478a000	2019	0	1	0	0xa5
0x3478c000	3785	0	1	0	0xa5
0x3478e000	39441	-0.564	1	8	0x20a5
0x34790000	2033	0	1	0	0xa5
0x34792000	3986	0	1	0	0xa5
0x3479a000	3591	0	1	0	0xa5
0x3479c000	9401	0	1	0	0xa5
0x3479e000	8440	0	1	0	0xa5
0x347a0000	4916	0	1	0	0xa5
0x347a8000	2019	0	1	0	0xa5
0x347aa000	2086	0	1	0	0xa5
0x347ac000	3338	0	1	0	0xa5
0x347ae000	5047	0	1	0	0xa5
0x347b4000	2045	0	1	0	0xa5
0x347b8000	2380	0	1	0	0xa5
0x347ba000	5768	0	1	0	0xa5
0x347bc000	7945	0	1	0	0xa5
0x347be000	3397	0	1	0	0xa5
0x347cc000	2731	0	1	0	0xa5
0x347ce000	4511	0	1	0	0xa5
0x347d0000	2811	0	1	0	0xa5
0x347d2000	2095	0	1	0	0xa5
0x347d6000	3459	0	1	0	0xa5
0x347da000	4012	0	1	0	0xa5
0x347dc000	23333	0	1	0	0xa5
0x34870000	2594	0	1	0	0xa5
0x3489c000	2400	0	1	0	0xa5
0x348c4000	2318	0	1	0	0xa5
0x34922000	2143	0	1	0	0xa5
0x34944000	2815	0	1	0	0xa5
0x3494e000	3600	0	1	0	0xa5
0x3497e000	3642	0	1	0	0xa5
0x34984000	2380	0	1	0	0xa5
0x3499e000	3170	0	1	0	0xa5
0x349aa000	4209	0	1	0	0xa5
0x349c4000	3229	0	1	0	0xa5
0x34a00000	2685	0	1	0	0xa5
0x34a10000	3204	0	1	0	0xa5
0x34a38000	5523	0	1	0	0xa5
0x34a5e000	4284	0	1	0	0xa5
0x34a74000	2239	0	1	0	0xa5
0x34a80000	2611	0	1	0	0xa5
0x34a84000	2356	0	1	0	0xa5
0x34a8a000	2159	0	1	0	0xa5
0x34a8e000	2229	0	1	0	0xa5
0x34a90000	2295	0	1	0	0xa5
0x34a92000	2158	0	1	0	0xa5
0x34a9c000	5026	0	1	0	0xa5
0x34aa2000	2740	0	1	0	0xa5
0x34aa8000	2027	0	1	0	0xa5
0x34aae000	3167	0	1	0	0xa5
0x34acc000	2791	0	1	0	0xa5
0x34ad2000	2266	0	1	0	0xa5
0x34ad4000	2469	0	1	0	0xa5
0x34ad8000	3644	0	1	0	0xa5
0x34adc000	2809	0	1	0	0xa5
0x34af2000	2029	0	1	0	0xa5
0x34af6000	3191	0	1	0	0xa5
0x34afc000	3145	0	1	0	0xa5
0x34b00000	3149	0	1	0	0xa5
0x34b02000	4345	0	1	0	0xa5
0x34b04000	3131	0	1	0	0xa5
0x34b0e000	2023	0	1	0	0xa5
0x34b10000	3149	0	1	0	0xa5
0x34b16000	2171	0	1	0	0xa5
0x34b20000	3244	0	1	0	0xa5
0x34b22000	6516	0	1	0	0xa5
0x34b2a000	5924	0	1	0	0xa5
0x34b2c000	2896	0	1	0	0xa5
0x34b30000	2729	0	1	0	0xa5
0x34b38000	3167	0	1	0	0xa5
0x34b3c000	2199	0	1	0	0xa5
0x34b40000	6531	0	1	0	0xa5
0x34b42000	4943	0	1	0	0xa5
0x34b44000	3487	0	1	0	0xa5
0x34b46000	5651	0	1	0	0xa5
0x34b4c000	5084	0	1	0	0xa5
0x34b50000	2847	0	1	0	0xa5
0x34b5e000	5900	0	1	0	0xa5
0x34b60000	7965	0	1	0	0xa5
0x34b64000	3341	0	1	0	0xa5
0x34b6a000	2217	0	1	0	0xa5
0x34b70000	14500	0	1	0	0xa5
0x34b72000	4371	0	1	0	0xa5
0x34b7a000	4582	0	1	0	0xa5
0x34b80000	3438	0	1	0	0xa5
0x34b82000	2289	0	1	0	0xa5
0x34b84000	4797	0	1	0	0xa5
0x34b8c000	14991	0	1	0	0xa5
0x34b92000	8282	0	1	0	0xa5
0x34b94000	3471	0	1	0	0xa5
0x34b9c000	4651	0	1	0	0xa5
0x34ba0000	6935	0	1	0	0xa5
0x34bae000	3706	0	1	0	0xa5
0x34bb2000	3870	0	1	0	0xa5
0x34bb6000	7045	0	1	0	0xa5
0x34bb8000	6854	0	1	0	0xa5
0x34bc4000	2031	0	1	0	0xa5
0x34bcc000	3998	0	1	0	0xa5
0x34bd6000	10844	0	1	0	0xa5
0x34bd8000	2713	0	1	0	0xa5
0x34bda000	3356	0	1	0	0xa5
0x34bea000	2349	0	1	0	0xa5
0x34bf2000	4991	0	1	0	0xa5
0x34bf4000	3236	0	1	0	0xa5
0x34bfa000	4640	0	1	0	0xa5
0x3505e000	2284	0	1	0	0xa5
0x3510c000	2710	0	1	0	0xa5
0x35112000	2524	0	1	0	0xa5
0x35114000	2928	0	1	0	0xa5
0x3519c000	5496	0	1	0	0xa5
0x351a4000	4100	0	1	0	0xa5
0x351b6000	3103	0	1	0	0xa5
0x351c4000	2041	0	1	0	0xa5
0x351d0000	2163	0	1	0	0xa5
0x351de000	4439	0	1	0	0xa5
0x351ec000	2211	0	1	0	0xa5
0x351ee000	5043	0	1	0	0xa5
0x351f2000	3599	0	1	0	0xa5
0x351f6000	3984	0	1	0	0xa5
0x361d0000	2043	0	1	0	0xa5
0x362ec000	2406	0	1	0	0xa5
0x36328000	2176	0	1	0	0xa5
0x36386000	3923	0	1	0	0xa5
0x363ba000	5475	0	1	0	0xa5
0x363cc000	2077	0	1	0	0xa5
0x363f0000	2902	0	1	0	0xa5
0x36434000	2530	0	1	0	0xa5
0x36438000	2465	0	1	0	0xa5
0x36444000	2115	0	1	0	0xa5
0x36446000	2475	0	1	0	0xa5
0x3646a000	2226	0	1	0	0xa5
0x36472000	4130	0	1	0	0xa5
0x36476000	2257	0	1	0	0xa5
0x364a8000	2190	0	1	0	0xa5
0x364b2000	5902	0	1	0	0xa5
0x364be000	4056	0	1	0	0xa5
0x364e4000	2910	0	1	0	0xa5
0x364ec000	2600	0	1	0	0xa5
0x36502000	2406	0	1	0	0xa5
0x36504000	2419	0	1	0	0xa5
0x3650c000	3962	0	1	0	0xa5
0x36532000	2499	0	1	0	0xa5
0x36536000	3221	0	1	0	0xa5
0x36538000	2748	0	1	0	0xa5
0x36556000	2722	0	1	0	0xa5
0x36558000	3866	0	1	0	0xa5
0x36560000	4477	0	1	0	0xa5
0x3656e000	2740	0	1	0	0xa5
0x36576000	3956	0	1	0	0xa5
0x3658c000	2737	0	1	0	0xa5
0x36590000	2500	0	1	0	0xa5
0x36598000	2302	0	1	0	0xa5
0x365d6000	2746	0	1	0	0xa5
0x365d8000	2222	0	1	0	0xa5
0x365da000	3469	0	1	0	0xa5
0x365dc000	3001	0	1	0	0xa5
0x365e6000	9411	0	1	0	0xa5
0x365e8000	2638	0	1	0	0xa5
0x365ec000	2377	0	1	0	0xa5
0x365f0000	2432	0	1	0	0xa5
0x365f6000	3425	0	1	0	0xa5
0x36600000	2485	0	1	0	0xa5
0x36608000	7036	0	1	0	0xa5
0x3660a000	2589	0	1	0	0xa5
0x36612000	3792	0	1	0	0xa5
0x36614000	2410	0	1	0	0xa5
0x36620000	4032	0	1	0	0xa5
0x36626000	2228	0	1	0	0xa5
0x36628000	5262	0	1	0	0xa5
0x3662a000	2116	0	1	0	0xa5
0x3662c000	2034	0	1	0	0xa5
0x36632000	10802	0	1	0	0xa5
0x36634000	4066	0	1	0	0xa5
0x36638000	3404	0	1	0	0xa5
0x3663c000	2215	0	1	0	0xa5
0x3663e000	3843	0	1	0	0xa5
0x36640000	4261	0	1	0	0xa5
0x36642000	3437	0	1	0	0xa5
0x36652000	4617	0	1	0	0xa5
0x36654000	4258	0	1	0	0xa5
0x3665a000	2737	0	1	0	0xa5
0x3665c000	4440	0	1	0	0xa5
0x3665e000	3765	0	1	0	0xa5
0x36660000	3763	0	1	0	0xa5
0x36662000	3768	0	1	0	0xa5
0x36668000	2965	0	1	0	0xa5
0x3666c000	2088	0	1	0	0xa5
0x36670000	4558	0	1	0	0xa5
0x36672000	12725	0	1	0	0xa5
0x36674000	4517	0	1	0	0xa5
0x3667a000	2714	0	1	0	0xa5
0x3667c000	2097	0	1	0	0xa5
0x36680000	6597	0	1	0	0xa5
0x36684000	2071	0	1	0	0xa5
0x36688000	13019	0	1	0	0xa5
0x3668e000	2252	0	1	0	0xa5
0x36694000	2640	0	1	0	0xa5
0x3669c000	8139	0	1	0	0xa5
0x3669e000	3405	0	1	0	0xa5
0x366a0000	3424	0	1	0	0xa5
0x366a2000	6689	0	1	0	0xa5
0x366ae000	2514	0	1	0	0xa5
0x366b4000	3014	0	1	0	0xa5
0x366be000	14264	0	1	0	0xa5
0x366d0000	2481	0	1	0	0xa5
0x366dc000	2373	0	1	0	0xa5
0x366e2000	3838	0	1	0	0xa5
0x366f4000	2059	0	1	0	0xa5
0x366f6000	2757	0	1	0	0xa5
0x366fe000	11777	0	1	0	0xa5
0x36700000	3229	0	1	0	0xa5
0x36716000	2002	0	1	0	0xa5
0x3671e000	10126	0	1	0	0xa5
0x3673a000	2226	0	1	0	0xa5
0x3673e000	5492	0	1	0	0xa5
0x36740000	4110	0	1	0	0xa5
0x36748000	2607	0	1	0	0xa5
0x3674c000	3156	0	1	0	0xa5
0x36756000	7044	0	1	0	0xa5
0x3675c000	7094	0	1	0	0xa5
0x3675e000	4807	0	1	0	0xa5
0x36760000	32646	0.28	1	3	0x20a5
0x36776000	2022	0	1	0	0xa5
0x36778000	2542	0	1	0	0xa5
0x3677a000	2441	0	1	0	0xa5
0x3677c000	2826	0	1	0	0xa5
0x3677e000	15224	0	1	0	0xa5
0x3678e000	2218	0	1	0	0xa5
0x36798000	2278	0	1	0	0xa5
0x3679c000	4774	0	1	0	0xa5
0x3679e000	3962	0	1	0	0xa5
0x367b0000	2646	0	1	0	0xa5
0x367b2000	2070	0	1	0	0xa5
0x367ba000	2892	0	1	0	0xa5
0x367be000	3352	0	1	0	0xa5
0x367c0000	6196	0	1	0	0xa5
0x367c2000	2298	0	1	0	0xa5
0x367c8000	2261	0	1	0	0xa5
0x367ce000	2563	0	1	0	0xa5
0x367d0000	2664	0	1	0	0xa5
0x367d2000	4463	0	1	0	0xa5
0x367d8000	3193	0	1	0	0xa5
0x367dc000	2262	0	1	0	0xa5
0x367de000	3622	0	1	0	0xa5
0x3685e000	2077	0	1	0	0xa5
0x36a20000	2641	0	1	0	0xa5
0x36a30000	2440	0	1	0	0xa5
0x36a3e000	2150	0	1	0	0xa5
0x36a4a000	2272	0	1	0	0xa5
0x36a52000	2396	0	1	0	0xa5
0x36a54000	2193	0	1	0	0xa5
0x36a88000	4815	0	1	0	0xa5
0x36a8e000	2187	0	1	0	0xa5
0x36a94000	2412	0	1	0	0xa5
0x36aa8000	4766	0	1	0	0xa5
0x36aba000	3349	0	1	0	0xa5
0x36abc000	2552	0	1	0	0xa5
0x36ae0000	3089	0	1	0	0xa5
0x36af8000	5099	0	1	0	0xa5
0x36b18000	5152	0	1	0	0xa5
0x36b1c000	2627	0	1	0	0xa5
0x36b24000	2740	0	1	0	0xa5
0x36b28000	4540	0	1	0	0xa5
0x36b30000	3242	0	1	0	0xa5
0x36b38000	2527	0	1	0	0xa5
0x36b3c000	2510	0	1	0	0xa5
0x36b52000	4811	0	1	0	0xa5
0x36b56000	3061	0	1	0	0xa5
0x36b5c000	4154	0	1	0	0xa5
0x36b5e000	2813	0	1	0	0xa5
0x36b64000	3513	0	1	0	0xa5
0x36b66000	2676	0	1	0	0xa5
0x36b6c000	2764	0	1	0	0xa5
0x36b72000	3072	0	1	0	0xa5
0x36b74000	2008	0	1	0	0xa5
0x36b7a000	4348	0	1	0	0xa5
0x36b7c000	2268	0	1	0	0xa5
0x36b7e000	2307	0	1	0	0xa5
0x36b80000	3058	0	1	0	0xa5
0x36b8a000	4781	0	1	0	0xa5
0x36b94000	3799	0	1	0	0xa5
0x36b96000	3059	0	1	0	0xa5
0x36b98000	2163	0	1	0	0xa5
0x36b9c000	3925	0	1	0	0xa5
0x36b9e000	2230	0	1	0	0xa5
0x36bac000	4400	0	1	0	0xa5
0x36bb0000	3894	0	1	0	0xa5
0x36bba000	5251	0	1	0	0xa5
0x36bc2000	2426	0	1	0	0xa5
0x36bd2000	3306	0	1	0	0xa5
0x36bd4000	6256	0	1	0	0xa5
0x36bd8000	2911	0	1	0	0xa5
0x36bdc000	10506	0	1	0	0xa5
0x36be4000	4623	0	1	0	0xa5
0x36bf2000	2725	0	1	0	0xa5
0x36bf4000	6986	0	1	0	0xa5
0x36bfa000	2850	0	1	0	0xa5
0x36bfc000	3941	0	1	0	0xa5
0x37040000	2308	0	1	0	0xa5
0x3704c000	2195	0	1	0	0xa5
0x370ca000	2227	0	1	0	0xa5
0x37136000	2063	0	1	0	0xa5
0x371a0000	3127	0	1	0	0xa5
0x371b2000	3424	0	1	0	0xa5
0x371b4000	5870	0	1	0	0xa5
0x371ce000	3041	0	1	0	0xa5
0x371d0000	4133	0	1	0	0xa5
0x371d2000	2082	0	1	0	0xa5
0x371e2000	5554	0	1	0	0xa5
0x371e4000	3417	0	1	0	0xa5
0x371e6000	3900	0	1	0	0xa5
0x371f0000	2122	0	1	0	0xa5
0x371f4000	12147	0	1	0	0xa5
0x371f6000	5298	0	1	0	0xa5
0x4406c000	2641.75	0.672562	-11	1281	0xa2a2
0x44078000	2033.7	1.15803	-11	1539	0xa2a2
0x44078010	7907.54	0.529689	-11	1801	0xa2a2
Sum of 187121 cell energies: 1.90476e+06
